<?xml version="1.0" encoding="utf-8"?>
<!-- Generator: Adobe Illustrator 16.0.0, SVG Export Plug-In . SVG Version: 6.00 Build 0)  -->
<!DOCTYPE svg PUBLIC "-//W3C//DTD SVG 1.1//EN" "http://www.w3.org/Graphics/SVG/1.1/DTD/svg11.dtd">
<svg version="1.1" id="_x30_" xmlns:xml="http://www.w3.org/XML/1998/namespace"
	 xmlns="http://www.w3.org/2000/svg" xmlns:xlink="http://www.w3.org/1999/xlink" x="0px" y="0px" width="302.968px"
	 height="202.164px" viewBox="0 0 302.968 202.164" enable-background="new 0 0 302.968 202.164" xml:space="preserve">
<g>
	<g id="silkscreen">
		<g id="_x30_.1.33_1_">
			<title  id="0.1.33.0">element:Z1</title>
			<g id="_x30_.1.33.1_1_">
				<title  id="0.1.33.1.0">package:CT/CN0603</title>
			</g>
		</g>
		<g id="_x30_.1.34_1_">
			<title  id="0.1.34.0">element:Z2</title>
			<g id="_x30_.1.34.1_1_">
				<title  id="0.1.34.1.0">package:CT/CN0603</title>
			</g>
		</g>
		<g>
			<title  id="0.1.0.1.0">layer 21</title>
			<g id="_x30_.1.0.1.2_1_">
				<title  id="0.1.0.1.2.0">text:MADE IN</title>
			</g>
			<g id="_x30_.1.0.1.3_1_">
				<title  id="0.1.0.1.3.0">text:ITALY</title>
			</g>
			<g id="_x30_.1.0.1.4_1_">
				<title  id="0.1.0.1.4.0">text:Prototype</title>
			</g>
			<g id="_x30_.1.0.1.5_1_">
				<title  id="0.1.0.1.5.0">text:Limited</title>
			</g>
			<g id="_x30_.1.0.1.6_1_">
				<title  id="0.1.0.1.6.0">text:Edition</title>
			</g>
			<g id="_x30_.1.0.1.7_1_">
				<g id="_x30_.1.0.1.7.0_1_">
					<g id="_x30_.1.0.1.7.0.0_1_" transform="matrix(1, 0, 0, 1, 102.569, 12.24)">
						<g id="_x30_.1.0.1.7.0.0.0_1_">
							<g id="_x30_.1.0.1.7.0.0.0.0_1_" transform="rotate(-90)">
								<g id="_x30_.1.0.1.7.0.0.0.0.0_1_">
									<g id="_x30_.1.0.1.7.0.0.0.0.0.0_1_" transform="matrix(1 0 0 1 -5.1472 -0.9391)">
										
											<text id="_x30_.1.0.1.7.0.0.0.0.0.0.0_1_" transform="matrix(1 0 0 1 -26.5337 89.3579)" fill="#FFFFFF" font-family="'OCRA'" font-size="3.75">13</text>
									</g>
								</g>
							</g>
						</g>
					</g>
				</g>
			</g>
			<g id="_x30_.1.0.1.8_1_">
				<g id="_x30_.1.0.1.8.0_1_">
					<g id="_x30_.1.0.1.8.0.0_1_" transform="matrix(1, 0, 0, 1, 109.769, 12.24)">
						<g id="_x30_.1.0.1.8.0.0.0_1_">
							<g id="_x30_.1.0.1.8.0.0.0.0_1_" transform="rotate(-90)">
								<g id="_x30_.1.0.1.8.0.0.0.0.0_1_">
									<g id="_x30_.1.0.1.8.0.0.0.0.0.0_1_" transform="matrix(1 0 0 1 -5.1472 -0.9384)">
										
											<text id="_x30_.1.0.1.8.0.0.0.0.0.0.0_1_" transform="matrix(1 0 0 1 -26.5337 89.3584)" fill="#FFFFFF" font-family="'OCRA'" font-size="3.75">12</text>
									</g>
								</g>
							</g>
						</g>
					</g>
				</g>
			</g>
			<g id="_x30_.1.0.1.9_1_">
				<g id="_x30_.1.0.1.9.0_1_">
					<g id="_x30_.1.0.1.9.0.0_1_" transform="matrix(1, 0, 0, 1, 116.969, 12.24)">
						<g id="_x30_.1.0.1.9.0.0.0_1_">
							<g id="_x30_.1.0.1.9.0.0.0.0_1_" transform="rotate(-90)">
								<g id="_x30_.1.0.1.9.0.0.0.0.0_1_">
									<g id="_x30_.1.0.1.9.0.0.0.0.0.0_1_" transform="matrix(1 0 0 1 -5.1472 -0.9392)">
										
											<text id="_x30_.1.0.1.9.0.0.0.0.0.0.0_1_" transform="matrix(1 0 0 1 -26.5337 89.3584)" fill="#FFFFFF" font-family="'OCRA'" font-size="3.75">11</text>
									</g>
								</g>
							</g>
						</g>
					</g>
				</g>
			</g>
			<g id="_x30_.1.0.1.10_1_">
				<g id="_x30_.1.0.1.10.0_1_">
					<g id="_x30_.1.0.1.10.0.0_1_" transform="matrix(1, 0, 0, 1, 124.169, 12.24)">
						<g id="_x30_.1.0.1.10.0.0.0_1_">
							<g id="_x30_.1.0.1.10.0.0.0.0_1_" transform="rotate(-90)">
								<g id="_x30_.1.0.1.10.0.0.0.0.0_1_">
									<g id="_x30_.1.0.1.10.0.0.0.0.0.0_1_" transform="matrix(1 0 0 1 -5.1472 -0.94)">
										
											<text id="_x30_.1.0.1.10.0.0.0.0.0.0.0_1_" transform="matrix(1 0 0 1 -26.5337 89.3564)" fill="#FFFFFF" font-family="'OCRA'" font-size="3.75">10</text>
									</g>
								</g>
							</g>
						</g>
					</g>
				</g>
			</g>
			<g id="_x30_.1.0.1.11_1_">
				<g id="_x30_.1.0.1.11.0_1_">
					<g id="_x30_.1.0.1.11.0.0_1_" transform="matrix(1, 0, 0, 1, 131.369, 12.24)">
						<g id="_x30_.1.0.1.11.0.0.0_1_">
							<g id="_x30_.1.0.1.11.0.0.0.0_1_" transform="rotate(-90)">
								<g id="_x30_.1.0.1.11.0.0.0.0.0_1_">
									<g id="_x30_.1.0.1.11.0.0.0.0.0.0_1_" transform="matrix(1 0 0 1 -2.4402 -0.9388)">
										
											<text id="_x30_.1.0.1.11.0.0.0.0.0.0.0_1_" transform="matrix(1 0 0 1 -26.5337 89.3584)" fill="#FFFFFF" font-family="'OCRA'" font-size="3.75">9</text>
									</g>
								</g>
							</g>
						</g>
					</g>
				</g>
			</g>
			<g id="_x30_.1.0.1.12_1_">
				<g id="_x30_.1.0.1.12.0_1_">
					<g id="_x30_.1.0.1.12.0.0_1_" transform="matrix(1, 0, 0, 1, 138.569, 12.24)">
						<g id="_x30_.1.0.1.12.0.0.0_1_">
							<g id="_x30_.1.0.1.12.0.0.0.0_1_" transform="rotate(-90)">
								<g id="_x30_.1.0.1.12.0.0.0.0.0_1_">
									<g id="_x30_.1.0.1.12.0.0.0.0.0.0_1_" transform="matrix(1 0 0 1 -2.4402 -0.9396)">
										
											<text id="_x30_.1.0.1.12.0.0.0.0.0.0.0_1_" transform="matrix(1 0 0 1 -26.5337 89.3564)" fill="#FFFFFF" font-family="'OCRA'" font-size="3.75">8</text>
									</g>
								</g>
							</g>
						</g>
					</g>
				</g>
			</g>
			<g id="_x30_.1.0.1.13_1_">
				<g id="_x30_.1.0.1.13.0_1_">
					<g id="_x30_.1.0.1.13.0.0_1_" transform="matrix(1, 0, 0, 1, 150.089, 12.24)">
						<g id="_x30_.1.0.1.13.0.0.0_1_">
							<g id="_x30_.1.0.1.13.0.0.0.0_1_" transform="rotate(-90)">
								<g id="_x30_.1.0.1.13.0.0.0.0.0_1_">
									<g id="_x30_.1.0.1.13.0.0.0.0.0.0_1_" transform="matrix(1 0 0 1 -2.4402 -0.9401)">
										
											<text id="_x30_.1.0.1.13.0.0.0.0.0.0.0_1_" transform="matrix(1 0 0 1 -26.5337 89.3564)" fill="#FFFFFF" font-family="'OCRA'" font-size="3.75">7</text>
									</g>
								</g>
							</g>
						</g>
					</g>
				</g>
			</g>
			<g id="_x30_.1.0.1.14_1_">
				<g id="_x30_.1.0.1.14.0_1_">
					<g id="_x30_.1.0.1.14.0.0_1_" transform="matrix(1, 0, 0, 1, 157.289, 12.24)">
						<g id="_x30_.1.0.1.14.0.0.0_1_">
							<g id="_x30_.1.0.1.14.0.0.0.0_1_" transform="rotate(-90)">
								<g id="_x30_.1.0.1.14.0.0.0.0.0_1_">
									<g id="_x30_.1.0.1.14.0.0.0.0.0.0_1_" transform="matrix(1 0 0 1 -2.4402 -0.9389)">
										
											<text id="_x30_.1.0.1.14.0.0.0.0.0.0.0_1_" transform="matrix(1 0 0 1 -26.5337 89.3564)" fill="#FFFFFF" font-family="'OCRA'" font-size="3.75">6</text>
									</g>
								</g>
							</g>
						</g>
					</g>
				</g>
			</g>
			<g id="_x30_.1.0.1.15_1_">
				<g id="_x30_.1.0.1.15.0_1_">
					<g id="_x30_.1.0.1.15.0.0_1_" transform="matrix(1, 0, 0, 1, 164.489, 12.24)">
						<g id="_x30_.1.0.1.15.0.0.0_1_">
							<g id="_x30_.1.0.1.15.0.0.0.0_1_" transform="rotate(-90)">
								<g id="_x30_.1.0.1.15.0.0.0.0.0_1_">
									<g id="_x30_.1.0.1.15.0.0.0.0.0.0_1_" transform="matrix(1 0 0 1 -2.4402 -0.9397)">
										
											<text id="_x30_.1.0.1.15.0.0.0.0.0.0.0_1_" transform="matrix(1 0 0 1 -26.5337 89.3564)" fill="#FFFFFF" font-family="'OCRA'" font-size="3.75">5</text>
									</g>
								</g>
							</g>
						</g>
					</g>
				</g>
			</g>
			<g id="_x30_.1.0.1.16_1_">
				<g id="_x30_.1.0.1.16.0_1_">
					<g id="_x30_.1.0.1.16.0.0_1_" transform="matrix(1, 0, 0, 1, 171.689, 12.24)">
						<g id="_x30_.1.0.1.16.0.0.0_1_">
							<g id="_x30_.1.0.1.16.0.0.0.0_1_" transform="rotate(-90)">
								<g id="_x30_.1.0.1.16.0.0.0.0.0_1_">
									<g id="_x30_.1.0.1.16.0.0.0.0.0.0_1_" transform="matrix(1 0 0 1 -2.4402 -0.9405)">
										
											<text id="_x30_.1.0.1.16.0.0.0.0.0.0.0_1_" transform="matrix(1 0 0 1 -26.5337 89.3564)" fill="#FFFFFF" font-family="'OCRA'" font-size="3.75">4</text>
									</g>
								</g>
							</g>
						</g>
					</g>
				</g>
			</g>
			<g id="_x30_.1.0.1.17_1_">
				<g id="_x30_.1.0.1.17.0_1_">
					<g id="_x30_.1.0.1.17.0.0_1_" transform="matrix(1, 0, 0, 1, 178.889, 12.24)">
						<g id="_x30_.1.0.1.17.0.0.0_1_">
							<g id="_x30_.1.0.1.17.0.0.0.0_1_" transform="rotate(-90)">
								<g id="_x30_.1.0.1.17.0.0.0.0.0_1_">
									<g id="_x30_.1.0.1.17.0.0.0.0.0.0_1_" transform="matrix(1 0 0 1 -2.4402 -0.9393)">
										
											<text id="_x30_.1.0.1.17.0.0.0.0.0.0.0_1_" transform="matrix(1 0 0 1 -26.5337 89.3564)" fill="#FFFFFF" font-family="'OCRA'" font-size="3.75">3</text>
									</g>
								</g>
							</g>
						</g>
					</g>
				</g>
			</g>
			<g id="_x30_.1.0.1.18_1_">
				<g id="_x30_.1.0.1.18.0_1_">
					<g id="_x30_.1.0.1.18.0.0_1_" transform="matrix(1, 0, 0, 1, 186.089, 12.24)">
						<g id="_x30_.1.0.1.18.0.0.0_1_">
							<g id="_x30_.1.0.1.18.0.0.0.0_1_" transform="rotate(-90)">
								<g id="_x30_.1.0.1.18.0.0.0.0.0_1_">
									<g id="_x30_.1.0.1.18.0.0.0.0.0.0_1_" transform="matrix(1 0 0 1 -2.4402 -0.9401)">
										
											<text id="_x30_.1.0.1.18.0.0.0.0.0.0.0_1_" transform="matrix(1 0 0 1 -26.5337 89.3564)" fill="#FFFFFF" font-family="'OCRA'" font-size="3.75">2</text>
									</g>
								</g>
							</g>
						</g>
					</g>
				</g>
			</g>
			<g id="_x30_.1.0.1.20_1_">
				<title  id="0.1.0.1.20.0">element:C1</title>
				<g id="_x30_.1.0.1.20.1_1_">
					<title  id="0.1.0.1.20.1.0">package:C0603-ROUND</title>
				</g>
			</g>
			<g id="_x30_.1.0.1.21_1_">
				<title  id="0.1.0.1.21.0">element:C2</title>
				<g id="_x30_.1.0.1.21.1_1_">
					<title  id="0.1.0.1.21.1.0">package:C0603-ROUND</title>
				</g>
			</g>
			<g id="_x30_.1.0.1.22_1_">
				<title  id="0.1.0.1.22.0">element:C3</title>
				<g id="_x30_.1.0.1.22.1_1_">
					<title  id="0.1.0.1.22.1.0">package:C0603-ROUND</title>
				</g>
			</g>
			<g id="_x30_.1.0.1.23_1_">
				<title  id="0.1.0.1.23.0">element:C4</title>
				<g id="_x30_.1.0.1.23.1_1_">
					<title  id="0.1.0.1.23.1.0">package:C0603-ROUND</title>
				</g>
			</g>
			<g id="_x30_.1.0.1.24_1_">
				<title  id="0.1.0.1.24.0">element:C5</title>
				<g id="_x30_.1.0.1.24.1_1_">
					<title  id="0.1.0.1.24.1.0">package:C0603-ROUND</title>
				</g>
			</g>
			<g id="_x30_.1.0.1.25_1_">
				<title  id="0.1.0.1.25.0">element:C6</title>
				<g id="_x30_.1.0.1.25.1_1_">
					<title  id="0.1.0.1.25.1.0">package:C0603-ROUND</title>
				</g>
			</g>
			<g id="_x30_.1.0.1.26_1_">
				<title  id="0.1.0.1.26.0">element:C7</title>
				<g id="_x30_.1.0.1.26.1_1_">
					<title  id="0.1.0.1.26.1.0">package:C0603-ROUND</title>
				</g>
			</g>
			<g id="_x30_.1.0.1.27_1_">
				<title  id="0.1.0.1.27.0">element:C8</title>
				<g id="_x30_.1.0.1.27.1_1_">
					<title  id="0.1.0.1.27.1.0">package:C0603-ROUND</title>
				</g>
			</g>
			<g id="_x30_.1.0.1.28_1_">
				<title  id="0.1.0.1.28.0">element:C9</title>
				<g id="_x30_.1.0.1.28.1_1_">
					<title  id="0.1.0.1.28.1.0">package:C0603-ROUND</title>
				</g>
			</g>
			<g id="_x30_.1.0.1.29_1_">
				<title  id="0.1.0.1.29.0">element:C11</title>
				<g id="_x30_.1.0.1.29.1_1_">
					<title  id="0.1.0.1.29.1.0">package:C0603-ROUND</title>
				</g>
			</g>
			<g id="_x30_.1.0.1.31_1_">
				<title  id="0.1.0.1.31.0">element:F1</title>
				<g id="_x30_.1.0.1.31.1_1_">
					<title  id="0.1.0.1.31.1.0">package:L1812</title>
				</g>
			</g>
			<g id="_x30_.1.0.1.32_1_">
				<title  id="0.1.0.1.32.0">element:FD1</title>
				<g id="_x30_.1.0.1.32.1_1_">
					<title  id="0.1.0.1.32.1.0">package:FIDUCIA-MOUNT</title>
				</g>
			</g>
			<g id="_x30_.1.0.1.33_1_">
				<title  id="0.1.0.1.33.0">element:FD2</title>
				<g id="_x30_.1.0.1.33.1_1_">
					<title  id="0.1.0.1.33.1.0">package:FIDUCIA-MOUNT</title>
				</g>
			</g>
			<g id="_x30_.1.0.1.34_1_">
				<title  id="0.1.0.1.34.0">element:FD3</title>
				<g id="_x30_.1.0.1.34.1_1_">
					<title  id="0.1.0.1.34.1.0">package:FIDUCIA-MOUNT</title>
				</g>
			</g>
			<g id="_x30_.1.0.1.35_1_">
				<title  id="0.1.0.1.35.0">element:GROUND</title>
				<g id="_x30_.1.0.1.35.1_1_">
					<title  id="0.1.0.1.35.1.0">package:SJ</title>
				</g>
			</g>
			<g id="_x30_.1.0.1.44_1_">
				<title  id="0.1.0.1.44.0">element:R1</title>
				<g id="_x30_.1.0.1.44.1_1_">
					<title  id="0.1.0.1.44.1.0">package:R0603-ROUND</title>
				</g>
			</g>
			<g id="_x30_.1.0.1.45_1_">
				<title  id="0.1.0.1.45.0">element:R2</title>
				<g id="_x30_.1.0.1.45.1_1_">
					<title  id="0.1.0.1.45.1.0">package:R0603-ROUND</title>
				</g>
			</g>
			<g id="_x30_.1.0.1.46_1_">
				<title  id="0.1.0.1.46.0">element:RN1</title>
				<g id="_x30_.1.0.1.46.1_1_">
					<title  id="0.1.0.1.46.1.0">package:CAY16</title>
				</g>
			</g>
			<g id="_x30_.1.0.1.47_1_">
				<title  id="0.1.0.1.47.0">element:RN2</title>
				<g id="_x30_.1.0.1.47.1_1_">
					<title  id="0.1.0.1.47.1.0">package:CAY16</title>
				</g>
			</g>
			<g id="_x30_.1.0.1.48_1_">
				<title  id="0.1.0.1.48.0">element:RN3</title>
				<g id="_x30_.1.0.1.48.1_1_">
					<title  id="0.1.0.1.48.1.0">package:CAY16</title>
				</g>
			</g>
			<g id="_x30_.1.0.1.49_1_">
				<title  id="0.1.0.1.49.0">element:RN4</title>
				<g id="_x30_.1.0.1.49.1_1_">
					<title  id="0.1.0.1.49.1.0">package:CAY16</title>
				</g>
			</g>
			<g id="_x30_.1.0.1.52_1_">
				<title  id="0.1.0.1.52.0">element:Z1</title>
				<g id="_x30_.1.0.1.52.1_1_">
					<title  id="0.1.0.1.52.1.0">package:CT/CN0603</title>
				</g>
			</g>
			<g id="_x30_.1.0.1.53_1_">
				<title  id="0.1.0.1.53.0">element:Z2</title>
				<g id="_x30_.1.0.1.53.1_1_">
					<title  id="0.1.0.1.53.1.0">package:CT/CN0603</title>
				</g>
			</g>
			<title  id="0.1.0.2.0">layer 25</title>
			<g id="_x30_.1.0.2.1_1_">
				<g id="_x30_.1.0.2.1.0_1_">
					<g id="_x30_.1.0.2.1.0.0_1_" transform="matrix(0 -1 1 0 127.3638 138.9966)">
						
							<text id="_x30_.1.0.2.1.0.0.0_1_" transform="matrix(0 1 -1 0 -26.5337 85.2216)" fill="#FFFFFF" font-family="'OCRA'" font-size="3.3408">5V</text>
					</g>
				</g>
			</g>
			<g id="_x30_.1.0.2.2_2_">
				<title  id="0.1.0.2.2.0">text:A0</title>
				<g id="_x30_.1.0.2.2.1_2_" transform="matrix(-4.371139e-008 -1 1 -4.371139e-008 163.2192 138.9966)">
					
						<text id="_x30_.1.0.2.2.1.0_2_" transform="matrix(0 1 -1 0 -38.1987 85.9013)" fill="#FFFFFF" font-family="'OCRA'" font-size="3.3408">A0</text>
				</g>
			</g>
			<g id="_x30_.1.0.2.4_3_">
				<g id="_x30_.1.0.2.4.0_3_">
					<g id="_x30_.1.0.2.4.0.0_3_" transform="matrix(1, 0, 0, 1, 87.8933, 11.8426)">
						<g id="_x30_.1.0.2.4.0.0.0_3_">
							<g id="_x30_.1.0.2.4.0.0.0.0_3_" transform="rotate(-90)">
								<g id="_x30_.1.0.2.4.0.0.0.0.0_3_">
									<g id="_x30_.1.0.2.4.0.0.0.0.0.0_3_" transform="matrix(1 0 0 1 -11.0056 -0.9392)">
										
											<text id="_x30_.1.0.2.4.0.0.0.0.0.0.0_3_" transform="matrix(1 0 0 1 -26.5336 89.3559)" fill="#FFFFFF" font-family="'OCRA'" font-size="3.75">AREF</text>
									</g>
								</g>
							</g>
						</g>
					</g>
				</g>
			</g>
			<g id="_x30_.1.0.2.4_1_">
				<g id="_x30_.1.0.2.4.0_1_">
					<g id="_x30_.1.0.2.4.0.0_1_" transform="matrix(1, 0, 0, 1, 87.8933, 11.8426)">
						<g id="_x30_.1.0.2.4.0.0.0_1_">
							<g id="_x30_.1.0.2.4.0.0.0.0_1_" transform="rotate(-90)">
								<g id="_x30_.1.0.2.4.0.0.0.0.0_1_">
									<g id="_x30_.1.0.2.4.0.0.0.0.0.0_1_" transform="matrix(1 0 0 1 -11.0056 -0.9392)">
										
											<text id="_x30_.1.0.2.4.0.0.0.0.0.0.0_1_" transform="matrix(1 0 0 1 -23.8461 74.9848)" fill="#FFFFFF" font-family="'OCRA'" font-size="3.75">SCL</text>
									</g>
								</g>
							</g>
						</g>
					</g>
				</g>
			</g>
			<g id="_x30_.1.0.2.4_2_">
				<g id="_x30_.1.0.2.4.0_2_">
					<g id="_x30_.1.0.2.4.0.0_2_" transform="matrix(1, 0, 0, 1, 87.8933, 11.8426)">
						<g id="_x30_.1.0.2.4.0.0.0_2_">
							<g id="_x30_.1.0.2.4.0.0.0.0_2_" transform="rotate(-90)">
								<g id="_x30_.1.0.2.4.0.0.0.0.0_2_">
									<g id="_x30_.1.0.2.4.0.0.0.0.0.0_2_" transform="matrix(1 0 0 1 -11.0056 -0.9392)">
										
											<text id="_x30_.1.0.2.4.0.0.0.0.0.0.0_2_" transform="matrix(1 0 0 1 -23.8461 82.1859)" fill="#FFFFFF" font-family="'OCRA'" font-size="3.75">SDA</text>
									</g>
								</g>
							</g>
						</g>
					</g>
				</g>
			</g>
			<g id="_x30_.1.0.2.6_1_">
				<g id="_x30_.1.0.2.6.0_1_">
					<g id="_x30_.1.0.2.6.0.0_1_" transform="matrix(1, 0, 0, 1, 95.4223, 11.9146)">
						<g id="_x30_.1.0.2.6.0.0.0_1_">
							<g id="_x30_.1.0.2.6.0.0.0.0_1_" transform="rotate(-90)">
								<g id="_x30_.1.0.2.6.0.0.0.0.0_1_">
									<g id="_x30_.1.0.2.6.0.0.0.0.0.0_1_" transform="matrix(1 0 0 1 -8.246 -0.9399)">
										
											<text id="_x30_.1.0.2.6.0.0.0.0.0.0.0_1_" transform="matrix(1 0 0 1 -26.5337 89.3569)" fill="#FFFFFF" font-family="'OCRA'" font-size="3.75">GND</text>
									</g>
								</g>
							</g>
						</g>
					</g>
				</g>
			</g>
			<g id="_x30_.1.0.2.7_1_">
				<title  id="0.1.0.2.7.0">text:M.Banzi</title>
			</g>
			<g id="_x30_.1.0.2.8_1_">
				<title  id="0.1.0.2.8.0">text:D.Cuartielles</title>
			</g>
			<g id="_x30_.1.0.2.9_1_">
				<title  id="0.1.0.2.9.0">text:D.Mellis</title>
			</g>
			<g id="_x30_.1.0.2.12_1_">
				<title  id="0.1.0.2.12.0">text:G.Martino</title>
			</g>
			<g id="_x30_.1.0.2.13_1_">
				<title  id="0.1.0.2.13.0">text:T.Igoe</title>
			</g>
			<g id="_x30_.1.0.2.14_1_">
				<g id="_x30_.1.0.2.14.0_1_">
					<g id="_x30_.1.0.2.14.0.0_1_" transform="matrix(1, 0, 0, 1, 112.292, 138.6)">
						<g id="_x30_.1.0.2.14.0.0.0_1_">
							<g id="_x30_.1.0.2.14.0.0.0.0_1_" transform="rotate(270)">
								<g id="_x30_.1.0.2.14.0.0.0.0.0_1_">
									<g id="_x30_.1.0.2.14.0.0.0.0.0.0_1_" transform="matrix(1 0 0 1 -9.155273e-005 -4.882813e-004)">
										
											<text id="_x30_.1.0.2.14.0.0.0.0.0.0.0_1_" transform="matrix(1 0 0 1 -26.9302 89.7392)" fill="#FFFFFF" font-family="'OCRA'" font-size="3.3408">RESET</text>
									</g>
								</g>
							</g>
						</g>
					</g>
				</g>
			</g>
			<g id="_x30_.1.0.2.15_1_">
				<g id="_x30_.1.0.2.15.0_1_">
					<g id="_x30_.1.0.2.15.0.0_1_" transform="matrix(1, 0, 0, 1, 120.212, 138.96)">
						<g id="_x30_.1.0.2.15.0.0.0_1_">
							<g id="_x30_.1.0.2.15.0.0.0.0_1_" transform="rotate(270)">
								<g id="_x30_.1.0.2.15.0.0.0.0.0_1_">
									<g id="_x30_.1.0.2.15.0.0.0.0.0.0_1_" transform="matrix(1 0 0 1 5.340576e-004 -5.798340e-004)">
										
											<text id="_x30_.1.0.2.15.0.0.0.0.0.0.0_1_" transform="matrix(0 1 -1 0 -26.5337 84.1474)" fill="#FFFFFF" font-family="'OCRA'" font-size="3.3408">3V3</text>
									</g>
								</g>
							</g>
						</g>
					</g>
				</g>
			</g>
			<g id="_x30_.1.0.2.16_1_">
				<title  id="0.1.0.2.16.0">text:A1</title>
				<g id="_x30_.1.0.2.16.1_1_" transform="matrix(-4.371139e-008 -1 1 -4.371139e-008 170.4185 138.9966)">
					
						<text id="_x30_.1.0.2.16.1.0_1_" transform="matrix(0 1 -1 0 -38.1987 85.9012)" fill="#FFFFFF" font-family="'OCRA'" font-size="3.3408">A1</text>
				</g>
			</g>
			<g id="_x30_.1.0.2.17_1_">
				<title  id="0.1.0.2.17.0">text:A2</title>
				<g id="_x30_.1.0.2.17.1_1_" transform="matrix(-4.371139e-008 -1 1 -4.371139e-008 177.6216 138.9966)">
					
						<text id="_x30_.1.0.2.17.1.0_1_" transform="matrix(0 1 -1 0 -38.1987 85.9013)" fill="#FFFFFF" font-family="'OCRA'" font-size="3.3408">A2</text>
				</g>
			</g>
			<g id="_x30_.1.0.2.18_1_">
				<title  id="0.1.0.2.18.0">text:A3</title>
				<g id="_x30_.1.0.2.18.1_1_" transform="matrix(-4.371139e-008 -1 1 -4.371139e-008 184.8188 138.9966)">
					
						<text id="_x30_.1.0.2.18.1.0_1_" transform="matrix(0 1 -1 0 -38.1987 85.9013)" fill="#FFFFFF" font-family="'OCRA'" font-size="3.3408">A3</text>
				</g>
			</g>
			<g id="_x30_.1.0.2.19_1_">
				<title  id="0.1.0.2.19.0">text:A4</title>
				<g id="_x30_.1.0.2.19.1_1_" transform="matrix(-4.371139e-008 -1 1 -4.371139e-008 192.02 138.9966)">
					
						<text id="_x30_.1.0.2.19.1.0_1_" transform="matrix(0 1 -1 0 -38.1987 85.9013)" fill="#FFFFFF" font-family="'OCRA'" font-size="3.3408">A4</text>
				</g>
			</g>
			<g id="_x30_.1.0.2.20_1_">
				<title  id="0.1.0.2.20.0">text:A5</title>
				<g id="_x30_.1.0.2.20.1_1_" transform="matrix(-4.371139e-008 -1 1 -4.371139e-008 199.2192 138.9966)">
					
						<text id="_x30_.1.0.2.20.1.0_1_" transform="matrix(0 1 -1 0 -38.1987 85.9013)" fill="#FFFFFF" font-family="'OCRA'" font-size="3.3408">A5</text>
				</g>
			</g>
			<g id="_x30_.1.0.2.21_10_">
				<g id="_x30_.1.0.2.21.0_10_">
					<g id="_x30_.1.0.2.21.0.0_10_" transform="matrix(-4.371139e-008 -1 1 -4.371139e-008 148.9653 138.9966)">
						
							<text id="_x30_.1.0.2.21.0.0.0_10_" transform="matrix(0 1 -1 0 -26.5327 84.6708)" fill="#FFFFFF" font-family="'OCRA'" font-size="3.3408">VIN</text>
					</g>
				</g>
			</g>
			<g id="_x30_.1.0.2.21_1_">
				<g id="_x30_.1.0.2.21.0_1_">
					<g id="_x30_.1.0.2.21.0.0_1_" transform="matrix(-4.371139e-008 -1 1 -4.371139e-008 148.9653 138.9966)">
						
							<text id="_x30_.1.0.2.21.0.0.0_1_" transform="matrix(0 1 -1 0 -38.9077 78.665)" fill="#FFFFFF" font-family="'OCRA'" font-size="3.3408">POWER</text>
					</g>
				</g>
			</g>
			<g id="_x30_.1.0.2.23_2_">
				<g id="_x30_.1.0.2.23.0_2_">
					<g id="_x30_.1.0.2.23.0.0_2_" transform="matrix(-4.371139e-008 -1 1 -4.371139e-008 141.5571 138.9595)">
						
							<text id="_x30_.1.0.2.23.0.0.0_2_" transform="matrix(0 1 -1 0 -26.5327 77.0439)" fill="#FFFFFF" font-family="'OCRA'" font-size="3.3408">GND</text>
					</g>
				</g>
			</g>
			<g id="_x30_.1.0.2.23_1_">
				<g id="_x30_.1.0.2.23.0_1_">
					<g id="_x30_.1.0.2.23.0.0_1_" transform="matrix(-4.371139e-008 -1 1 -4.371139e-008 141.5571 138.9595)">
						
							<text id="_x30_.1.0.2.23.0.0.0_1_" transform="matrix(0 1 -1 0 -26.5708 84.9638)" fill="#FFFFFF" font-family="'OCRA'" font-size="3.3408">GND</text>
					</g>
				</g>
			</g>
			<g id="_x30_.1.0.2.32_7_">
				<g id="_x30_.1.0.2.32.0_4_">
					<g id="_x30_.1.0.2.32.0.0_4_" transform="matrix(1, 0, 0, 1, 106.172, 138.6)">
						<g id="_x30_.1.0.2.32.0.0.0_4_">
							<g id="_x30_.1.0.2.32.0.0.0.0_4_" transform="rotate(270)">
								<g id="_x30_.1.0.2.32.0.0.0.0.0_4_">
									<g id="_x30_.1.0.2.32.0.0.0.0.0.0_4_" transform="matrix(1 0 0 1 -9.155273e-005 -1.220703e-004)">
										
											<text id="_x30_.1.0.2.32.0.0.0.0.0.0.0_4_" transform="matrix(1 0 0 1 -26.9302 88.6615)" fill="#FFFFFF" font-family="'OCRA'" font-size="3.3408">IOREF</text>
									</g>
								</g>
							</g>
						</g>
					</g>
				</g>
			</g>
			<g id="_x30_.1.0.2.33_1_">
				<title  id="0.1.0.2.33.0">text:SDA</title>
			</g>
			<g id="_x30_.1.0.2.34_1_">
				<title  id="0.1.0.2.34.0">text:SCL</title>
			</g>
			<g id="_x30_.1.0.2.35_1_">
				<title  id="0.1.0.2.35.0">element:AD</title>
				<g id="_x30_.1.0.2.35.1_1_">
					<title  id="0.1.0.2.35.1.0">package:1X06</title>
				</g>
			</g>
			<g id="_x30_.1.0.2.36_1_">
				<title  id="0.1.0.2.36.0">element:C1</title>
				<g id="_x30_.1.0.2.36.1_1_">
					<title  id="0.1.0.2.36.1.0">package:C0603-ROUND</title>
				</g>
			</g>
			<g id="_x30_.1.0.2.37_1_">
				<title  id="0.1.0.2.37.0">element:C2</title>
				<g id="_x30_.1.0.2.37.1_1_">
					<title  id="0.1.0.2.37.1.0">package:C0603-ROUND</title>
				</g>
			</g>
			<g id="_x30_.1.0.2.38_1_">
				<title  id="0.1.0.2.38.0">element:C3</title>
				<g id="_x30_.1.0.2.38.1_1_">
					<title  id="0.1.0.2.38.1.0">package:C0603-ROUND</title>
				</g>
			</g>
			<g id="_x30_.1.0.2.39_1_">
				<title  id="0.1.0.2.39.0">element:C4</title>
				<g id="_x30_.1.0.2.39.1_1_">
					<title  id="0.1.0.2.39.1.0">package:C0603-ROUND</title>
				</g>
			</g>
			<g id="_x30_.1.0.2.40_1_">
				<title  id="0.1.0.2.40.0">element:C5</title>
				<g id="_x30_.1.0.2.40.1_1_">
					<title  id="0.1.0.2.40.1.0">package:C0603-ROUND</title>
				</g>
			</g>
			<g id="_x30_.1.0.2.41_1_">
				<title  id="0.1.0.2.41.0">element:C6</title>
				<g id="_x30_.1.0.2.41.1_1_">
					<title  id="0.1.0.2.41.1.0">package:C0603-ROUND</title>
				</g>
			</g>
			<g id="_x30_.1.0.2.42_1_">
				<title  id="0.1.0.2.42.0">element:C7</title>
				<g id="_x30_.1.0.2.42.1_1_">
					<title  id="0.1.0.2.42.1.0">package:C0603-ROUND</title>
				</g>
			</g>
			<g id="_x30_.1.0.2.43_1_">
				<title  id="0.1.0.2.43.0">element:C8</title>
				<g id="_x30_.1.0.2.43.1_1_">
					<title  id="0.1.0.2.43.1.0">package:C0603-ROUND</title>
				</g>
			</g>
			<g id="_x30_.1.0.2.44_1_">
				<title  id="0.1.0.2.44.0">element:C9</title>
				<g id="_x30_.1.0.2.44.1_1_">
					<title  id="0.1.0.2.44.1.0">package:C0603-ROUND</title>
				</g>
			</g>
			<g id="_x30_.1.0.2.45_1_">
				<title  id="0.1.0.2.45.0">element:C11</title>
				<g id="_x30_.1.0.2.45.1_1_">
					<title  id="0.1.0.2.45.1.0">package:C0603-ROUND</title>
				</g>
			</g>
			<g id="_x30_.1.0.2.46_1_">
				<title  id="0.1.0.2.46.0">element:D1</title>
				<g id="_x30_.1.0.2.46.1_1_">
					<title  id="0.1.0.2.46.1.0">package:SMB</title>
				</g>
			</g>
			<g id="_x30_.1.0.2.47_1_">
				<title  id="0.1.0.2.47.0">element:D2</title>
				<g id="_x30_.1.0.2.47.1_1_">
					<title  id="0.1.0.2.47.1.0">package:MINIMELF</title>
				</g>
			</g>
			<g id="_x30_.1.0.2.48_1_">
				<title  id="0.1.0.2.48.0">element:D3</title>
				<g id="_x30_.1.0.2.48.1_1_">
					<title  id="0.1.0.2.48.1.0">package:MINIMELF</title>
				</g>
			</g>
			<g id="_x30_.1.0.2.49_1_">
				<title  id="0.1.0.2.49.0">element:F1</title>
				<g id="_x30_.1.0.2.49.1_1_">
					<title  id="0.1.0.2.49.1.0">package:L1812</title>
				</g>
			</g>
			<g id="_x30_.1.0.2.50_1_">
				<title  id="0.1.0.2.50.0">element:FD1</title>
				<g id="_x30_.1.0.2.50.1_1_">
					<title  id="0.1.0.2.50.1.0">package:FIDUCIA-MOUNT</title>
				</g>
			</g>
			<g id="_x30_.1.0.2.51_1_">
				<title  id="0.1.0.2.51.0">element:FD2</title>
				<g id="_x30_.1.0.2.51.1_1_">
					<title  id="0.1.0.2.51.1.0">package:FIDUCIA-MOUNT</title>
				</g>
			</g>
			<g id="_x30_.1.0.2.52_1_">
				<title  id="0.1.0.2.52.0">element:FD3</title>
				<g id="_x30_.1.0.2.52.1_1_">
					<title  id="0.1.0.2.52.1.0">package:FIDUCIA-MOUNT</title>
				</g>
			</g>
			<g id="_x30_.1.0.2.53_1_">
				<title  id="0.1.0.2.53.0">element:GROUND</title>
				<g id="_x30_.1.0.2.53.1_1_">
					<title  id="0.1.0.2.53.1.0">package:SJ</title>
				</g>
			</g>
			<g id="_x30_.1.0.2.56_1_">
				<title  id="0.1.0.2.56.0">element:ICSP1</title>
				<g id="_x30_.1.0.2.56.1_1_">
					<title  id="0.1.0.2.56.1.0">package:2X03</title>
				</g>
			</g>
			<g id="_x30_.1.0.2.57_1_">
				<title  id="0.1.0.2.57.0">element:IOH</title>
				<g id="_x30_.1.0.2.57.1_1_">
					<title  id="0.1.0.2.57.1.0">package:1X10@1</title>
				</g>
			</g>
			<g id="_x30_.1.0.2.58_1_">
				<title  id="0.1.0.2.58.0">element:IOL</title>
				<g id="_x30_.1.0.2.58.1_1_">
					<title  id="0.1.0.2.58.1.0">package:1X08</title>
				</g>
			</g>
			<g id="_x30_.1.0.2.59_1_">
				<title  id="0.1.0.2.59.0">element:JP2</title>
				<g id="_x30_.1.0.2.59.1_1_">
					<title  id="0.1.0.2.59.1.0">package:2X02</title>
				</g>
			</g>
			<g id="_x30_.1.0.2.60_1_">
				<title  id="0.1.0.2.60.0">element:L</title>
				<g id="_x30_.1.0.2.60.1_1_">
					<title  id="0.1.0.2.60.1.0">package:CHIP-LED0805</title>
				</g>
			</g>
			<g id="_x30_.1.0.2.61_1_">
				<title  id="0.1.0.2.61.0">element:L1</title>
				<g id="_x30_.1.0.2.61.1_1_">
					<title  id="0.1.0.2.61.1.0">package:0805</title>
				</g>
			</g>
			<g id="_x30_.1.0.2.63_1_">
				<title  id="0.1.0.2.63.0">element:PC1</title>
				<g id="_x30_.1.0.2.63.1_1_">
					<title  id="0.1.0.2.63.1.0">package:PANASONIC_D</title>
				</g>
			</g>
			<g id="_x30_.1.0.2.64_1_">
				<title  id="0.1.0.2.64.0">element:PC2</title>
				<g id="_x30_.1.0.2.64.1_1_">
					<title  id="0.1.0.2.64.1.0">package:PANASONIC_D</title>
				</g>
			</g>
			<g id="_x30_.1.0.2.65_1_">
				<title  id="0.1.0.2.65.0">element:R1</title>
				<g id="_x30_.1.0.2.65.1_1_">
					<title  id="0.1.0.2.65.1.0">package:R0603-ROUND</title>
				</g>
			</g>
			<g id="_x30_.1.0.2.66_1_">
				<title  id="0.1.0.2.66.0">element:R2</title>
				<g id="_x30_.1.0.2.66.1_1_">
					<title  id="0.1.0.2.66.1.0">package:R0603-ROUND</title>
				</g>
			</g>
			<g id="_x30_.1.0.2.67_1_">
				<title  id="0.1.0.2.67.0">element:RESET</title>
				<g id="_x30_.1.0.2.67.1_1_">
					<title  id="0.1.0.2.67.1.0">package:TS42</title>
				</g>
			</g>
			<g id="_x30_.1.0.2.68_1_">
				<title  id="0.1.0.2.68.0">element:RESET-EN</title>
				<g id="_x30_.1.0.2.68.1_1_">
					<title  id="0.1.0.2.68.1.0">package:SJ</title>
				</g>
			</g>
			<g id="_x30_.1.0.2.69_1_">
				<title  id="0.1.0.2.69.0">element:RN1</title>
				<g id="_x30_.1.0.2.69.1_1_">
					<title  id="0.1.0.2.69.1.0">package:CAY16</title>
				</g>
			</g>
			<g id="_x30_.1.0.2.70_1_">
				<title  id="0.1.0.2.70.0">element:RN2</title>
				<g id="_x30_.1.0.2.70.1_1_">
					<title  id="0.1.0.2.70.1.0">package:CAY16</title>
				</g>
			</g>
			<g id="_x30_.1.0.2.71_1_">
				<title  id="0.1.0.2.71.0">element:RN3</title>
				<g id="_x30_.1.0.2.71.1_1_">
					<title  id="0.1.0.2.71.1.0">package:CAY16</title>
				</g>
			</g>
			<g id="_x30_.1.0.2.72_1_">
				<title  id="0.1.0.2.72.0">element:RN4</title>
				<g id="_x30_.1.0.2.72.1_1_">
					<title  id="0.1.0.2.72.1.0">package:CAY16</title>
				</g>
			</g>
			<g id="_x30_.1.0.2.73_1_">
				<title  id="0.1.0.2.73.0">element:RX</title>
				<g id="_x30_.1.0.2.73.1_1_">
					<title  id="0.1.0.2.73.1.0">package:CHIP-LED0805</title>
				</g>
			</g>
			<g id="_x30_.1.0.2.74_1_">
				<title  id="0.1.0.2.74.0">element:T1</title>
				<g id="_x30_.1.0.2.74.1_1_">
					<title  id="0.1.0.2.74.1.0">package:SOT-23</title>
				</g>
			</g>
			<g id="_x30_.1.0.2.75_1_">
				<title  id="0.1.0.2.75.0">element:TX</title>
				<g id="_x30_.1.0.2.75.1_1_">
					<title  id="0.1.0.2.75.1.0">package:CHIP-LED0805</title>
				</g>
			</g>
			<g id="_x30_.1.0.2.76_1_">
				<title  id="0.1.0.2.76.0">element:U1</title>
				<g id="_x30_.1.0.2.76.1_1_">
					<title  id="0.1.0.2.76.1.0">package:SOT223</title>
				</g>
			</g>
			<g id="_x30_.1.0.2.77_1_">
				<title  id="0.1.0.2.77.0">element:U2</title>
				<g id="_x30_.1.0.2.77.1_1_">
					<title  id="0.1.0.2.77.1.0">package:SOT23-DBV</title>
				</g>
			</g>
			<g id="_x30_.1.0.2.78_1_">
				<title  id="0.1.0.2.78.0">element:U3</title>
				<g id="_x30_.1.0.2.78.1_1_">
					<title  id="0.1.0.2.78.1.0">package:MLF32</title>
				</g>
			</g>
			<g id="_x30_.1.0.2.79_1_">
				<title  id="0.1.0.2.79.0">element:U5</title>
				<g id="_x30_.1.0.2.79.1_1_">
					<title  id="0.1.0.2.79.1.0">package:MSOP08</title>
				</g>
			</g>
			<g id="_x30_.1.0.2.80_1_">
				<title  id="0.1.0.2.80.0">element:X1</title>
				<g id="_x30_.1.0.2.80.1_1_">
					<title  id="0.1.0.2.80.1.0">package:POWERSUPPLY_DC-21MM</title>
				</g>
			</g>
			<g id="_x30_.1.0.2.81_1_">
				<title  id="0.1.0.2.81.0">element:X2</title>
				<g id="_x30_.1.0.2.81.1_1_">
					<title  id="0.1.0.2.81.1.0">package:PN61729</title>
				</g>
			</g>
			<g id="_x30_.1.0.2.82_1_">
				<title  id="0.1.0.2.82.0">element:Y1</title>
				<g id="_x30_.1.0.2.82.1_1_">
					<title  id="0.1.0.2.82.1.0">package:QS</title>
				</g>
			</g>
			<g id="_x30_.1.0.2.83_1_">
				<title  id="0.1.0.2.83.0">element:Y2</title>
				<g id="_x30_.1.0.2.83.1_1_">
					<title  id="0.1.0.2.83.1.0">package:RESONATOR</title>
				</g>
			</g>
			<g id="_x30_.1.0.2.84_1_">
				<title  id="0.1.0.2.84.0">element:Z1</title>
				<g id="_x30_.1.0.2.84.1_1_">
					<title  id="0.1.0.2.84.1.0">package:CT/CN0603</title>
				</g>
			</g>
			<g id="_x30_.1.0.2.85_1_">
				<title  id="0.1.0.2.85.0">element:Z2</title>
				<g id="_x30_.1.0.2.85.1_1_">
					<title  id="0.1.0.2.85.1.0">package:CT/CN0603</title>
				</g>
			</g>
			<g id="_x30_.1.0.2.86_1_">
				<title  id="0.1.0.2.86.0">element:ZU4</title>
				<g id="_x30_.1.0.2.86.1_1_">
					<title  id="0.1.0.2.86.1.0">package:DIL28-3</title>
				</g>
			</g>
			<g id="_x30_.1.0.89_1_">
				<g id="_x30_.1.0.89.0_1_">
					<g id="_x30_.1.0.89.0.0_1_" transform="matrix(1, 0, 0, 1, 199.772, 16.2)">
						<g id="_x30_.1.0.89.0.0.0_1_">
							<g id="_x30_.1.0.89.0.0.0.0_1_" transform="rotate(270)">
								<g id="_x30_.1.0.89.0.0.0.0.0_1_">
									<g id="_x30_.1.0.89.0.0.0.0.0.0_1_" transform="matrix(1 0 0 1 1.5198 -0.0449)">
										
											<text id="_x30_.1.0.89.0.0.0.0.0.0.0_1_" transform="matrix(1 0 0 1 -26.5337 89.3563)" fill="#FFFFFF" font-family="'OCRA'" font-size="3.75">0</text>
									</g>
								</g>
							</g>
						</g>
					</g>
				</g>
			</g>
			<g id="_x30_.1.0.90_1_">
				<g id="_x30_.1.0.90.0_1_">
					<g id="_x30_.1.0.90.0.0_1_" transform="matrix(1, 0, 0, 1, 192.572, 16.2)">
						<g id="_x30_.1.0.90.0.0.0_1_">
							<g id="_x30_.1.0.90.0.0.0.0_1_" transform="rotate(270)">
								<g id="_x30_.1.0.90.0.0.0.0.0_1_">
									<g id="_x30_.1.0.90.0.0.0.0.0.0_1_" transform="matrix(1 0 0 1 1.5198 -0.0441)">
										
											<text id="_x30_.1.0.90.0.0.0.0.0.0.0_1_" transform="matrix(1 0 0 1 -26.5337 89.3563)" fill="#FFFFFF" font-family="'OCRA'" font-size="3.75">1</text>
									</g>
								</g>
							</g>
						</g>
					</g>
				</g>
			</g>
			<g id="_x30_.1.0.91_1_">
				<g id="_x30_.1.0.91.0_1_">
					<g id="_x30_.1.0.91.0.0_1_" transform="matrix(1, 0, 0, 1, 192.572, 30.96)">
						<g id="_x30_.1.0.91.0.0.0_1_">
							<g id="_x30_.1.0.91.0.0.0.0_1_" transform="rotate(270)">
								<g id="_x30_.1.0.91.0.0.0.0.0_1_">
									<g id="_x30_.1.0.91.0.0.0.0.0.0_1_" transform="matrix(1 0 0 1 3.524 -0.0441)">
										
											<text id="_x30_.1.0.91.0.0.0.0.0.0.0_1_" transform="matrix(1 0 0 1 -23.8658 89.3563)" fill="#FFFFFF" font-family="'OCRA'" font-size="3.75">TX</text>
									</g>
								</g>
							</g>
						</g>
					</g>
				</g>
			</g>
			<g id="_x30_.1.0.92_1_">
				<g id="_x30_.1.0.92.0_1_">
					<g id="_x30_.1.0.92.0.0_1_" transform="matrix(1, 0, 0, 1, 199.772, 30.96)">
						<g id="_x30_.1.0.92.0.0.0_1_">
							<g id="_x30_.1.0.92.0.0.0.0_1_" transform="rotate(270)">
								<g id="_x30_.1.0.92.0.0.0.0.0_1_">
									<g id="_x30_.1.0.92.0.0.0.0.0.0_1_" transform="matrix(1 0 0 1 3.524 -0.0449)">
										
											<text id="_x30_.1.0.92.0.0.0.0.0.0.0_1_" transform="matrix(1 0 0 1 -23.8658 89.3563)" fill="#FFFFFF" font-family="'OCRA'" font-size="3.75">RX</text>
									</g>
								</g>
							</g>
						</g>
					</g>
				</g>
			</g>
			<g id="_x30_.1.0.93_3_">
				<path id="_x30_.1.0.93.0_3_" fill="#FFFFFF" d="M281.467,44.54c-0.004,0-0.01,0-0.015,0h-1.944
					c-0.125,0-0.235-0.068-0.297-0.179c-0.063-0.11-0.056-0.243,0.019-0.347l0.979-1.459c0.125-0.188,0.438-0.188,0.563,0
					l0.932,1.394c0.064,0.063,0.111,0.152,0.111,0.253C281.805,44.389,281.654,44.54,281.467,44.54z"/>
			</g>
			<g id="_x30_.1.0.94_7_">
				<path id="_x30_.1.0.94.0_7_" fill="#FFFFFF" d="M286.767,42.413c0.006,0,0.01,0,0.016,0h1.938c0.125,0,0.238,0.068,0.302,0.178
					c0.063,0.111,0.053,0.244-0.021,0.348l-0.978,1.459c-0.125,0.188-0.438,0.188-0.563,0l-0.931-1.396
					c-0.069-0.063-0.112-0.151-0.112-0.252C286.426,42.564,286.579,42.413,286.767,42.413z"/>
			</g>
			<g id="_x30_.1.0.94_9_">
				<path id="_x30_.1.0.94.0_9_" fill="#FFFFFF" d="M286.713,26.973c0.006,0,0.01,0,0.017,0h1.938c0.125,0,0.237,0.068,0.301,0.178
					c0.063,0.111,0.054,0.244-0.021,0.348l-0.978,1.459c-0.125,0.188-0.438,0.188-0.563,0l-0.93-1.396
					c-0.07-0.063-0.113-0.151-0.113-0.252C286.374,27.125,286.527,26.973,286.713,26.973z"/>
			</g>
			<g id="_x30_.1.0.94_10_">
				<path id="_x30_.1.0.94.0_10_" fill="#FFFFFF" d="M224.372,26.973c0.006,0,0.01,0,0.016,0h1.939c0.125,0,0.238,0.068,0.301,0.178
					c0.063,0.111,0.053,0.244-0.02,0.348l-0.979,1.459c-0.125,0.188-0.438,0.188-0.563,0l-0.931-1.396
					c-0.069-0.063-0.112-0.151-0.112-0.252C224.033,27.125,224.185,26.973,224.372,26.973z"/>
			</g>
			<g id="_x30_.1.0.94_2_">
				<path id="_x30_.1.0.94.0_2_" fill="#FFFFFF" d="M244.642,171.74c0-0.006,0-0.01,0-0.016v-1.938c0-0.125,0.068-0.238,0.178-0.303
					c0.111-0.063,0.244-0.053,0.35,0.021l1.459,0.977c0.188,0.125,0.188,0.438,0,0.563l-1.396,0.931
					c-0.063,0.069-0.15,0.112-0.252,0.112C244.794,172.082,244.642,171.928,244.642,171.74z"/>
			</g>
			<g id="_x30_.1.0.94_5_">
				<path id="_x30_.1.0.94.0_5_" fill="#FFFFFF" d="M185.555,163.951c0.007,0,0.011,0,0.017,0h1.938
					c0.125,0,0.238,0.066,0.302,0.178c0.063,0.109,0.053,0.244-0.021,0.348l-0.978,1.459c-0.125,0.189-0.438,0.189-0.563,0
					l-0.931-1.395c-0.069-0.064-0.112-0.152-0.112-0.254C185.215,164.102,185.369,163.951,185.555,163.951z"/>
			</g>
			<g>
				<g id="_x30_.1.0.2.21_6_">
					<g id="_x30_.1.0.2.21.0_6_">
						<g id="_x30_.1.0.2.21.0.0_6_" transform="matrix(-4.371139e-008 -1 1 -4.371139e-008 148.9653 138.9966)">
							
								<text id="_x30_.1.0.2.21.0.0.0_6_" transform="matrix(0 1 -1 0 80.8423 70.9892)" fill="#FFFFFF" font-family="'OCRA'" font-size="3.3408">DIGITAL(PWM )</text>
						</g>
					</g>
				</g>
				<path id="_x30_.1.0.2.30.0.0.0.0.0.0.0_13_" fill="none" stroke="#FFFFFF" stroke-width="0.5" stroke-miterlimit="10" d="
					M249.513,56.396c0.024,0.562-0.266,0.756-0.576,0.756c-0.199,0-0.38-0.063-0.727-0.224c-0.234-0.112-0.42-0.225-0.602-0.225
					c-0.404,0-0.629,0.353-0.64,0.651"/>
			</g>
		</g>
		<path id="_x30_.1.0.2.30.0.0.0.0.0.0.0_12_" fill="none" stroke="#FFFFFF" stroke-width="0.5" stroke-miterlimit="10" d="
			M217.728,42.1c0.563-0.025,0.756,0.265,0.756,0.576c0,0.2-0.063,0.38-0.224,0.726c-0.112,0.235-0.224,0.42-0.224,0.601
			c0,0.405,0.353,0.629,0.65,0.639"/>
		<path id="_x30_.1.0.2.30.0.0.0.0.0.0.0_11_" fill="none" stroke="#FFFFFF" stroke-width="0.5" stroke-miterlimit="10" d="
			M265.247,42.1c0.563-0.025,0.756,0.265,0.756,0.576c0,0.2-0.063,0.38-0.225,0.726c-0.111,0.235-0.226,0.42-0.226,0.601
			c0,0.405,0.354,0.629,0.651,0.639"/>
		<path id="_x30_.1.0.2.30.0.0.0.0.0.0.0_10_" fill="none" stroke="#FFFFFF" stroke-width="0.5" stroke-miterlimit="10" d="
			M250.846,42.206c0.562-0.025,0.757,0.265,0.757,0.576c0,0.2-0.063,0.38-0.222,0.726c-0.114,0.235-0.229,0.42-0.229,0.601
			c0,0.405,0.354,0.629,0.656,0.639"/>
		<path id="_x30_.1.0.2.30.0.0.0.0.0.0.0_9_" fill="none" stroke="#FFFFFF" stroke-width="0.5" stroke-miterlimit="10" d="
			M243.646,42.206c0.563-0.025,0.756,0.265,0.756,0.576c0,0.2-0.063,0.38-0.222,0.726c-0.114,0.235-0.225,0.42-0.225,0.601
			c0,0.405,0.352,0.629,0.651,0.639"/>
		<path id="_x30_.1.0.2.30.0.0.0.0.0.0.0_8_" fill="none" stroke="#FFFFFF" stroke-width="0.5" stroke-miterlimit="10" d="
			M210.525,45.393c0.563-0.025,0.756,0.265,0.756,0.576c0,0.2-0.063,0.38-0.221,0.726c-0.115,0.235-0.227,0.42-0.227,0.601
			c0,0.405,0.354,0.629,0.65,0.639"/>
		<path id="_x30_.1.0.2.30.0.0.0.0.0.0.0_7_" fill="none" stroke="#FFFFFF" stroke-width="0.5" stroke-miterlimit="10" d="
			M203.328,45.393c0.561-0.025,0.756,0.265,0.756,0.576c0,0.2-0.063,0.38-0.223,0.726c-0.113,0.235-0.229,0.42-0.229,0.601
			c0,0.405,0.354,0.629,0.653,0.639"/>
		<path id="_x30_.1.0.2.30.0.0.0.0.0.0.0_6_" fill="none" stroke="#FFFFFF" stroke-width="0.5" stroke-miterlimit="10" d="
			M188.929,45.393c0.561-0.025,0.756,0.265,0.756,0.576c0,0.2-0.063,0.38-0.223,0.726c-0.113,0.235-0.229,0.42-0.229,0.601
			c0,0.405,0.354,0.629,0.652,0.639"/>
		<polyline fill="none" stroke="#FFFFFF" stroke-width="0.5" stroke-linecap="round" stroke-miterlimit="10" points="290.93,42.414 
			290.93,53.83 258.529,53.83 255.795,56.562 		"/>
		<polyline fill="none" stroke="#FFFFFF" stroke-width="0.5" stroke-linecap="round" stroke-miterlimit="10" points="
			189.443,51.422 189.443,53.83 211.835,53.83 214.913,56.907 		"/>
		<g>
			<g>
				
					<line id="_x30_.1.6.1.1" fill="none" stroke="#FFFFFF" stroke-width="0.432" stroke-linecap="round" x1="271.017" y1="166.904" x2="274.617" y2="166.904"/>
				
					<line id="_x30_.1.6.1.2" fill="none" stroke="#FFFFFF" stroke-width="0.432" stroke-linecap="round" x1="274.617" y1="166.904" x2="276.415" y2="168.705"/>
				
					<line id="_x30_.1.6.1.3" fill="none" stroke="#FFFFFF" stroke-width="0.432" stroke-linecap="round" x1="276.415" y1="168.705" x2="276.415" y2="172.303"/>
				
					<line id="_x30_.1.6.1.4" fill="none" stroke="#FFFFFF" stroke-width="0.432" stroke-linecap="round" x1="276.415" y1="172.303" x2="274.617" y2="174.104"/>
				
					<line id="_x30_.1.6.1.5" fill="none" stroke="#FFFFFF" stroke-width="0.432" stroke-linecap="round" x1="276.415" y1="168.705" x2="278.215" y2="166.904"/>
				
					<line id="_x30_.1.6.1.6" fill="none" stroke="#FFFFFF" stroke-width="0.432" stroke-linecap="round" x1="278.215" y1="166.904" x2="281.818" y2="166.904"/>
				
					<line id="_x30_.1.6.1.7" fill="none" stroke="#FFFFFF" stroke-width="0.432" stroke-linecap="round" x1="281.818" y1="166.904" x2="283.617" y2="168.705"/>
				
					<line id="_x30_.1.6.1.8" fill="none" stroke="#FFFFFF" stroke-width="0.432" stroke-linecap="round" x1="283.617" y1="168.705" x2="283.617" y2="172.303"/>
				
					<line id="_x30_.1.6.1.9" fill="none" stroke="#FFFFFF" stroke-width="0.432" stroke-linecap="round" x1="283.617" y1="172.303" x2="281.818" y2="174.104"/>
				
					<line id="_x30_.1.6.1.10" fill="none" stroke="#FFFFFF" stroke-width="0.432" stroke-linecap="round" x1="281.818" y1="174.104" x2="278.215" y2="174.104"/>
				
					<line id="_x30_.1.6.1.11" fill="none" stroke="#FFFFFF" stroke-width="0.432" stroke-linecap="round" x1="278.215" y1="174.104" x2="276.415" y2="172.303"/>
				
					<line id="_x30_.1.6.1.12" fill="none" stroke="#FFFFFF" stroke-width="0.432" stroke-linecap="round" x1="262.017" y1="168.705" x2="263.818" y2="166.904"/>
				
					<line id="_x30_.1.6.1.13" fill="none" stroke="#FFFFFF" stroke-width="0.432" stroke-linecap="round" x1="263.818" y1="166.904" x2="267.415" y2="166.904"/>
				
					<line id="_x30_.1.6.1.14" fill="none" stroke="#FFFFFF" stroke-width="0.432" stroke-linecap="round" x1="267.415" y1="166.904" x2="269.215" y2="168.705"/>
				
					<line id="_x30_.1.6.1.15" fill="none" stroke="#FFFFFF" stroke-width="0.432" stroke-linecap="round" x1="269.215" y1="168.705" x2="269.215" y2="172.303"/>
				
					<line id="_x30_.1.6.1.16" fill="none" stroke="#FFFFFF" stroke-width="0.432" stroke-linecap="round" x1="269.215" y1="172.303" x2="267.415" y2="174.104"/>
				
					<line id="_x30_.1.6.1.17" fill="none" stroke="#FFFFFF" stroke-width="0.432" stroke-linecap="round" x1="267.415" y1="174.104" x2="263.818" y2="174.104"/>
				
					<line id="_x30_.1.6.1.18" fill="none" stroke="#FFFFFF" stroke-width="0.432" stroke-linecap="round" x1="263.818" y1="174.104" x2="262.017" y2="172.303"/>
				
					<line id="_x30_.1.6.1.19" fill="none" stroke="#FFFFFF" stroke-width="0.432" stroke-linecap="round" x1="271.017" y1="166.904" x2="269.215" y2="168.705"/>
				
					<line id="_x30_.1.6.1.20" fill="none" stroke="#FFFFFF" stroke-width="0.432" stroke-linecap="round" x1="269.215" y1="172.303" x2="271.017" y2="174.104"/>
				
					<line id="_x30_.1.6.1.21" fill="none" stroke="#FFFFFF" stroke-width="0.432" stroke-linecap="round" x1="274.617" y1="174.104" x2="271.017" y2="174.104"/>
				
					<line id="_x30_.1.6.1.22" fill="none" stroke="#FFFFFF" stroke-width="0.432" stroke-linecap="round" x1="249.415" y1="166.904" x2="253.017" y2="166.904"/>
				
					<line id="_x30_.1.6.1.23" fill="none" stroke="#FFFFFF" stroke-width="0.432" stroke-linecap="round" x1="253.017" y1="166.904" x2="254.818" y2="168.705"/>
				
					<line id="_x30_.1.6.1.24" fill="none" stroke="#FFFFFF" stroke-width="0.432" stroke-linecap="round" x1="254.818" y1="168.705" x2="254.818" y2="172.303"/>
				
					<line id="_x30_.1.6.1.25" fill="none" stroke="#FFFFFF" stroke-width="0.432" stroke-linecap="round" x1="254.818" y1="172.303" x2="253.017" y2="174.104"/>
				
					<line id="_x30_.1.6.1.26" fill="none" stroke="#FFFFFF" stroke-width="0.432" stroke-linecap="round" x1="254.818" y1="168.705" x2="256.617" y2="166.904"/>
				
					<line id="_x30_.1.6.1.27" fill="none" stroke="#FFFFFF" stroke-width="0.432" stroke-linecap="round" x1="256.617" y1="166.904" x2="260.215" y2="166.904"/>
				
					<line id="_x30_.1.6.1.28" fill="none" stroke="#FFFFFF" stroke-width="0.432" stroke-linecap="round" x1="260.215" y1="166.904" x2="262.017" y2="168.705"/>
				
					<line id="_x30_.1.6.1.29" fill="none" stroke="#FFFFFF" stroke-width="0.432" stroke-linecap="round" x1="262.017" y1="168.705" x2="262.017" y2="172.303"/>
				
					<line id="_x30_.1.6.1.30" fill="none" stroke="#FFFFFF" stroke-width="0.432" stroke-linecap="round" x1="262.017" y1="172.303" x2="260.215" y2="174.104"/>
				
					<line id="_x30_.1.6.1.31" fill="none" stroke="#FFFFFF" stroke-width="0.432" stroke-linecap="round" x1="260.215" y1="174.104" x2="256.617" y2="174.104"/>
				
					<line id="_x30_.1.6.1.32" fill="none" stroke="#FFFFFF" stroke-width="0.432" stroke-linecap="round" x1="256.617" y1="174.104" x2="254.818" y2="172.303"/>
				
					<line id="_x30_.1.6.1.33" fill="none" stroke="#FFFFFF" stroke-width="0.432" stroke-linecap="round" x1="247.617" y1="168.705" x2="247.617" y2="172.303"/>
				
					<line id="_x30_.1.6.1.34" fill="none" stroke="#FFFFFF" stroke-width="0.432" stroke-linecap="round" x1="249.415" y1="166.904" x2="247.617" y2="168.705"/>
				
					<line id="_x30_.1.6.1.35" fill="none" stroke="#FFFFFF" stroke-width="0.432" stroke-linecap="round" x1="247.617" y1="172.303" x2="249.415" y2="174.104"/>
				
					<line id="_x30_.1.6.1.36" fill="none" stroke="#FFFFFF" stroke-width="0.432" stroke-linecap="round" x1="253.017" y1="174.104" x2="249.415" y2="174.104"/>
				
					<line id="_x30_.1.6.1.37" fill="none" stroke="#FFFFFF" stroke-width="0.432" stroke-linecap="round" x1="285.415" y1="166.904" x2="289.017" y2="166.904"/>
				
					<line id="_x30_.1.6.1.38" fill="none" stroke="#FFFFFF" stroke-width="0.432" stroke-linecap="round" x1="289.017" y1="166.904" x2="290.818" y2="168.705"/>
				
					<line id="_x30_.1.6.1.39" fill="none" stroke="#FFFFFF" stroke-width="0.432" stroke-linecap="round" x1="290.818" y1="168.705" x2="290.818" y2="172.303"/>
				
					<line id="_x30_.1.6.1.40" fill="none" stroke="#FFFFFF" stroke-width="0.432" stroke-linecap="round" x1="290.818" y1="172.303" x2="289.017" y2="174.104"/>
				
					<line id="_x30_.1.6.1.41" fill="none" stroke="#FFFFFF" stroke-width="0.432" stroke-linecap="round" x1="285.415" y1="166.904" x2="283.617" y2="168.705"/>
				
					<line id="_x30_.1.6.1.42" fill="none" stroke="#FFFFFF" stroke-width="0.432" stroke-linecap="round" x1="283.617" y1="172.303" x2="285.415" y2="174.104"/>
				
					<line id="_x30_.1.6.1.43" fill="none" stroke="#FFFFFF" stroke-width="0.432" stroke-linecap="round" x1="289.017" y1="174.104" x2="285.415" y2="174.104"/>
			</g>
			<g>
				<polyline id="_x30_.1.13.1.3" fill="none" stroke="#FFFFFF" stroke-width="0.432" stroke-linecap="round" points="
					171.295,35.504 169.496,37.304 165.896,37.304 164.094,35.504 				"/>
				
					<line id="_x30_.1.13.1.4" fill="none" stroke="#FFFFFF" stroke-width="0.432" stroke-linecap="round" x1="164.094" y1="35.504" x2="164.094" y2="31.904"/>
				
					<line id="_x30_.1.13.1.5" fill="none" stroke="#FFFFFF" stroke-width="0.432" stroke-linecap="round" x1="164.094" y1="31.904" x2="165.896" y2="30.104"/>
				
					<line id="_x30_.1.13.1.6" fill="none" stroke="#FFFFFF" stroke-width="0.432" stroke-linecap="round" x1="165.896" y1="30.104" x2="169.496" y2="30.104"/>
				
					<line id="_x30_.1.13.1.7" fill="none" stroke="#FFFFFF" stroke-width="0.432" stroke-linecap="round" x1="169.496" y1="30.104" x2="171.295" y2="31.904"/>
				
					<line id="_x30_.1.13.1.10" fill="none" stroke="#FFFFFF" stroke-width="0.432" stroke-linecap="round" x1="178.496" y1="35.504" x2="178.496" y2="31.904"/>
				
					<line id="_x30_.1.13.1.11" fill="none" stroke="#FFFFFF" stroke-width="0.432" stroke-linecap="round" x1="178.496" y1="31.904" x2="180.295" y2="30.104"/>
				<polyline id="_x30_.1.13.1.14" fill="none" stroke="#FFFFFF" stroke-width="0.432" stroke-linecap="round" points="
					178.496,35.504 176.697,37.304 173.094,37.304 171.295,35.504 				"/>
				
					<line id="_x30_.1.13.1.15" fill="none" stroke="#FFFFFF" stroke-width="0.432" stroke-linecap="round" x1="171.295" y1="35.504" x2="171.295" y2="31.904"/>
				
					<line id="_x30_.1.13.1.16" fill="none" stroke="#FFFFFF" stroke-width="0.432" stroke-linecap="round" x1="171.295" y1="31.904" x2="173.094" y2="30.104"/>
				
					<line id="_x30_.1.13.1.17" fill="none" stroke="#FFFFFF" stroke-width="0.432" stroke-linecap="round" x1="173.094" y1="30.104" x2="176.697" y2="30.104"/>
				
					<line id="_x30_.1.13.1.18" fill="none" stroke="#FFFFFF" stroke-width="0.432" stroke-linecap="round" x1="176.697" y1="30.104" x2="178.496" y2="31.904"/>
				<polyline id="_x30_.1.13.1.21" fill="none" stroke="#FFFFFF" stroke-width="0.432" stroke-linecap="round" points="
					192.896,35.504 191.096,37.304 187.496,37.304 185.697,35.504 				"/>
				
					<line id="_x30_.1.13.1.22" fill="none" stroke="#FFFFFF" stroke-width="0.432" stroke-linecap="round" x1="185.697" y1="35.504" x2="185.697" y2="31.904"/>
				
					<line id="_x30_.1.13.1.23" fill="none" stroke="#FFFFFF" stroke-width="0.432" stroke-linecap="round" x1="185.697" y1="31.904" x2="187.496" y2="30.104"/>
				
					<line id="_x30_.1.13.1.24" fill="none" stroke="#FFFFFF" stroke-width="0.432" stroke-linecap="round" x1="187.496" y1="30.104" x2="191.096" y2="30.104"/>
				
					<line id="_x30_.1.13.1.25" fill="none" stroke="#FFFFFF" stroke-width="0.432" stroke-linecap="round" x1="191.096" y1="30.104" x2="192.896" y2="31.904"/>
				<polyline id="_x30_.1.13.1.26" fill="none" stroke="#FFFFFF" stroke-width="0.432" stroke-linecap="round" points="
					185.697,35.504 183.896,37.304 180.295,37.304 178.496,35.504 				"/>
				
					<line id="_x30_.1.13.1.27" fill="none" stroke="#FFFFFF" stroke-width="0.432" stroke-linecap="round" x1="185.697" y1="31.904" x2="183.896" y2="30.104"/>
				
					<line id="_x30_.1.13.1.28" fill="none" stroke="#FFFFFF" stroke-width="0.432" stroke-linecap="round" x1="180.295" y1="30.104" x2="183.896" y2="30.104"/>
				
					<line id="_x30_.1.13.1.31" fill="none" stroke="#FFFFFF" stroke-width="0.432" stroke-linecap="round" x1="200.096" y1="35.504" x2="200.096" y2="31.904"/>
				
					<line id="_x30_.1.13.1.32" fill="none" stroke="#FFFFFF" stroke-width="0.432" stroke-linecap="round" x1="200.096" y1="31.904" x2="201.896" y2="30.104"/>
				<polyline id="_x30_.1.13.1.35" fill="none" stroke="#FFFFFF" stroke-width="0.432" stroke-linecap="round" points="
					200.096,35.504 198.293,37.304 194.697,37.304 192.896,35.504 				"/>
				
					<line id="_x30_.1.13.1.36" fill="none" stroke="#FFFFFF" stroke-width="0.432" stroke-linecap="round" x1="192.896" y1="35.504" x2="192.896" y2="31.904"/>
				
					<line id="_x30_.1.13.1.37" fill="none" stroke="#FFFFFF" stroke-width="0.432" stroke-linecap="round" x1="192.896" y1="31.904" x2="194.697" y2="30.104"/>
				
					<line id="_x30_.1.13.1.38" fill="none" stroke="#FFFFFF" stroke-width="0.432" stroke-linecap="round" x1="194.697" y1="30.104" x2="198.293" y2="30.104"/>
				
					<line id="_x30_.1.13.1.39" fill="none" stroke="#FFFFFF" stroke-width="0.432" stroke-linecap="round" x1="198.293" y1="30.104" x2="200.096" y2="31.904"/>
				<polyline id="_x30_.1.13.1.42" fill="none" stroke="#FFFFFF" stroke-width="0.432" stroke-linecap="round" points="
					214.496,35.504 212.697,37.304 209.096,37.304 207.293,35.504 				"/>
				
					<line id="_x30_.1.13.1.43" fill="none" stroke="#FFFFFF" stroke-width="0.432" stroke-linecap="round" x1="207.293" y1="35.504" x2="207.293" y2="31.904"/>
				
					<line id="_x30_.1.13.1.44" fill="none" stroke="#FFFFFF" stroke-width="0.432" stroke-linecap="round" x1="207.293" y1="31.904" x2="209.096" y2="30.104"/>
				
					<line id="_x30_.1.13.1.45" fill="none" stroke="#FFFFFF" stroke-width="0.432" stroke-linecap="round" x1="209.096" y1="30.104" x2="212.697" y2="30.104"/>
				
					<line id="_x30_.1.13.1.46" fill="none" stroke="#FFFFFF" stroke-width="0.432" stroke-linecap="round" x1="212.697" y1="30.104" x2="214.496" y2="31.904"/>
				<polyline id="_x30_.1.13.1.47" fill="none" stroke="#FFFFFF" stroke-width="0.432" stroke-linecap="round" points="
					207.293,35.504 205.496,37.304 201.896,37.304 200.096,35.504 				"/>
				
					<line id="_x30_.1.13.1.48" fill="none" stroke="#FFFFFF" stroke-width="0.432" stroke-linecap="round" x1="207.293" y1="31.904" x2="205.496" y2="30.104"/>
				
					<line id="_x30_.1.13.1.49" fill="none" stroke="#FFFFFF" stroke-width="0.432" stroke-linecap="round" x1="201.896" y1="30.104" x2="205.496" y2="30.104"/>
				
					<line id="_x30_.1.13.1.52" fill="none" stroke="#FFFFFF" stroke-width="0.432" stroke-linecap="round" x1="221.697" y1="35.504" x2="221.697" y2="31.904"/>
				
					<line id="_x30_.1.13.1.53" fill="none" stroke="#FFFFFF" stroke-width="0.432" stroke-linecap="round" x1="221.697" y1="31.904" x2="223.496" y2="30.104"/>
				<polyline id="_x30_.1.13.1.56" fill="none" stroke="#FFFFFF" stroke-width="0.432" stroke-linecap="round" points="
					221.697,35.504 219.896,37.304 216.293,37.304 214.496,35.504 				"/>
				
					<line id="_x30_.1.13.1.57" fill="none" stroke="#FFFFFF" stroke-width="0.432" stroke-linecap="round" x1="214.496" y1="35.504" x2="214.496" y2="31.904"/>
				
					<line id="_x30_.1.13.1.58" fill="none" stroke="#FFFFFF" stroke-width="0.432" stroke-linecap="round" x1="214.496" y1="31.904" x2="216.293" y2="30.104"/>
				
					<line id="_x30_.1.13.1.59" fill="none" stroke="#FFFFFF" stroke-width="0.432" stroke-linecap="round" x1="216.293" y1="30.104" x2="219.896" y2="30.104"/>
				
					<line id="_x30_.1.13.1.60" fill="none" stroke="#FFFFFF" stroke-width="0.432" stroke-linecap="round" x1="219.896" y1="30.104" x2="221.697" y2="31.904"/>
				
					<line id="_x30_.1.13.1.61" fill="none" stroke="#FFFFFF" stroke-width="0.432" stroke-linecap="round" x1="228.896" y1="35.504" x2="228.896" y2="31.904"/>
				<polyline id="_x30_.1.13.1.62" fill="none" stroke="#FFFFFF" stroke-width="0.432" stroke-linecap="round" points="
					228.896,35.504 227.096,37.304 223.496,37.304 221.697,35.504 				"/>
				
					<line id="_x30_.1.13.1.63" fill="none" stroke="#FFFFFF" stroke-width="0.432" stroke-linecap="round" x1="228.896" y1="31.904" x2="227.096" y2="30.104"/>
				
					<line id="_x30_.1.13.1.64" fill="none" stroke="#FFFFFF" stroke-width="0.432" stroke-linecap="round" x1="223.496" y1="30.104" x2="227.096" y2="30.104"/>
				
					<line id="_x30_.1.13.1.67" fill="none" stroke="#FFFFFF" stroke-width="0.432" stroke-linecap="round" x1="156.894" y1="35.504" x2="156.894" y2="31.904"/>
				
					<line id="_x30_.1.13.1.68" fill="none" stroke="#FFFFFF" stroke-width="0.432" stroke-linecap="round" x1="156.894" y1="31.904" x2="158.697" y2="30.104"/>
				<polyline id="_x30_.1.13.1.69" fill="none" stroke="#FFFFFF" stroke-width="0.432" stroke-linecap="round" points="
					164.094,35.504 162.295,37.304 158.697,37.304 156.894,35.504 				"/>
				
					<line id="_x30_.1.13.1.70" fill="none" stroke="#FFFFFF" stroke-width="0.432" stroke-linecap="round" x1="164.094" y1="31.904" x2="162.295" y2="30.104"/>
				
					<line id="_x30_.1.13.1.71" fill="none" stroke="#FFFFFF" stroke-width="0.432" stroke-linecap="round" x1="158.697" y1="30.104" x2="162.295" y2="30.104"/>
			</g>
			<g>
				
					<line id="_x30_.1.14.1.1" fill="none" stroke="#FFFFFF" stroke-width="0.432" stroke-linecap="round" x1="245.816" y1="37.304" x2="242.215" y2="37.304"/>
				
					<line id="_x30_.1.14.1.2" fill="none" stroke="#FFFFFF" stroke-width="0.432" stroke-linecap="round" x1="242.215" y1="37.304" x2="240.415" y2="35.504"/>
				
					<line id="_x30_.1.14.1.3" fill="none" stroke="#FFFFFF" stroke-width="0.432" stroke-linecap="round" x1="240.415" y1="35.504" x2="240.415" y2="31.904"/>
				
					<line id="_x30_.1.14.1.4" fill="none" stroke="#FFFFFF" stroke-width="0.432" stroke-linecap="round" x1="240.415" y1="31.904" x2="242.215" y2="30.104"/>
				
					<line id="_x30_.1.14.1.5" fill="none" stroke="#FFFFFF" stroke-width="0.432" stroke-linecap="round" x1="254.818" y1="35.504" x2="253.017" y2="37.304"/>
				
					<line id="_x30_.1.14.1.6" fill="none" stroke="#FFFFFF" stroke-width="0.432" stroke-linecap="round" x1="253.017" y1="37.304" x2="249.415" y2="37.304"/>
				
					<line id="_x30_.1.14.1.7" fill="none" stroke="#FFFFFF" stroke-width="0.432" stroke-linecap="round" x1="249.415" y1="37.304" x2="247.617" y2="35.504"/>
				
					<line id="_x30_.1.14.1.8" fill="none" stroke="#FFFFFF" stroke-width="0.432" stroke-linecap="round" x1="247.617" y1="35.504" x2="247.617" y2="31.904"/>
				
					<line id="_x30_.1.14.1.9" fill="none" stroke="#FFFFFF" stroke-width="0.432" stroke-linecap="round" x1="247.617" y1="31.904" x2="249.415" y2="30.104"/>
				
					<line id="_x30_.1.14.1.10" fill="none" stroke="#FFFFFF" stroke-width="0.432" stroke-linecap="round" x1="249.415" y1="30.104" x2="253.017" y2="30.104"/>
				
					<line id="_x30_.1.14.1.11" fill="none" stroke="#FFFFFF" stroke-width="0.432" stroke-linecap="round" x1="253.017" y1="30.104" x2="254.818" y2="31.904"/>
				
					<line id="_x30_.1.14.1.12" fill="none" stroke="#FFFFFF" stroke-width="0.432" stroke-linecap="round" x1="245.816" y1="37.304" x2="247.617" y2="35.504"/>
				
					<line id="_x30_.1.14.1.13" fill="none" stroke="#FFFFFF" stroke-width="0.432" stroke-linecap="round" x1="247.617" y1="31.904" x2="245.816" y2="30.104"/>
				
					<line id="_x30_.1.14.1.14" fill="none" stroke="#FFFFFF" stroke-width="0.432" stroke-linecap="round" x1="242.215" y1="30.104" x2="245.816" y2="30.104"/>
				
					<line id="_x30_.1.14.1.15" fill="none" stroke="#FFFFFF" stroke-width="0.432" stroke-linecap="round" x1="267.415" y1="37.304" x2="263.818" y2="37.304"/>
				
					<line id="_x30_.1.14.1.16" fill="none" stroke="#FFFFFF" stroke-width="0.432" stroke-linecap="round" x1="263.818" y1="37.304" x2="262.017" y2="35.504"/>
				
					<line id="_x30_.1.14.1.17" fill="none" stroke="#FFFFFF" stroke-width="0.432" stroke-linecap="round" x1="262.017" y1="35.504" x2="262.017" y2="31.904"/>
				
					<line id="_x30_.1.14.1.18" fill="none" stroke="#FFFFFF" stroke-width="0.432" stroke-linecap="round" x1="262.017" y1="31.904" x2="263.818" y2="30.104"/>
				
					<line id="_x30_.1.14.1.19" fill="none" stroke="#FFFFFF" stroke-width="0.432" stroke-linecap="round" x1="262.017" y1="35.504" x2="260.215" y2="37.304"/>
				
					<line id="_x30_.1.14.1.20" fill="none" stroke="#FFFFFF" stroke-width="0.432" stroke-linecap="round" x1="260.215" y1="37.304" x2="256.617" y2="37.304"/>
				
					<line id="_x30_.1.14.1.21" fill="none" stroke="#FFFFFF" stroke-width="0.432" stroke-linecap="round" x1="256.617" y1="37.304" x2="254.818" y2="35.504"/>
				
					<line id="_x30_.1.14.1.22" fill="none" stroke="#FFFFFF" stroke-width="0.432" stroke-linecap="round" x1="254.818" y1="35.504" x2="254.818" y2="31.904"/>
				
					<line id="_x30_.1.14.1.23" fill="none" stroke="#FFFFFF" stroke-width="0.432" stroke-linecap="round" x1="254.818" y1="31.904" x2="256.617" y2="30.104"/>
				
					<line id="_x30_.1.14.1.24" fill="none" stroke="#FFFFFF" stroke-width="0.432" stroke-linecap="round" x1="256.617" y1="30.104" x2="260.215" y2="30.104"/>
				
					<line id="_x30_.1.14.1.25" fill="none" stroke="#FFFFFF" stroke-width="0.432" stroke-linecap="round" x1="260.215" y1="30.104" x2="262.017" y2="31.904"/>
				
					<line id="_x30_.1.14.1.26" fill="none" stroke="#FFFFFF" stroke-width="0.432" stroke-linecap="round" x1="276.415" y1="35.504" x2="274.617" y2="37.304"/>
				
					<line id="_x30_.1.14.1.27" fill="none" stroke="#FFFFFF" stroke-width="0.432" stroke-linecap="round" x1="274.617" y1="37.304" x2="271.017" y2="37.304"/>
				
					<line id="_x30_.1.14.1.28" fill="none" stroke="#FFFFFF" stroke-width="0.432" stroke-linecap="round" x1="271.017" y1="37.304" x2="269.215" y2="35.504"/>
				
					<line id="_x30_.1.14.1.29" fill="none" stroke="#FFFFFF" stroke-width="0.432" stroke-linecap="round" x1="269.215" y1="35.504" x2="269.215" y2="31.904"/>
				
					<line id="_x30_.1.14.1.30" fill="none" stroke="#FFFFFF" stroke-width="0.432" stroke-linecap="round" x1="269.215" y1="31.904" x2="271.017" y2="30.104"/>
				
					<line id="_x30_.1.14.1.31" fill="none" stroke="#FFFFFF" stroke-width="0.432" stroke-linecap="round" x1="271.017" y1="30.104" x2="274.617" y2="30.104"/>
				
					<line id="_x30_.1.14.1.32" fill="none" stroke="#FFFFFF" stroke-width="0.432" stroke-linecap="round" x1="274.617" y1="30.104" x2="276.415" y2="31.904"/>
				
					<line id="_x30_.1.14.1.33" fill="none" stroke="#FFFFFF" stroke-width="0.432" stroke-linecap="round" x1="267.415" y1="37.304" x2="269.215" y2="35.504"/>
				
					<line id="_x30_.1.14.1.34" fill="none" stroke="#FFFFFF" stroke-width="0.432" stroke-linecap="round" x1="269.215" y1="31.904" x2="267.415" y2="30.104"/>
				
					<line id="_x30_.1.14.1.35" fill="none" stroke="#FFFFFF" stroke-width="0.432" stroke-linecap="round" x1="263.818" y1="30.104" x2="267.415" y2="30.104"/>
				
					<line id="_x30_.1.14.1.36" fill="none" stroke="#FFFFFF" stroke-width="0.432" stroke-linecap="round" x1="289.017" y1="37.304" x2="285.415" y2="37.304"/>
				
					<line id="_x30_.1.14.1.37" fill="none" stroke="#FFFFFF" stroke-width="0.432" stroke-linecap="round" x1="285.415" y1="37.304" x2="283.617" y2="35.504"/>
				
					<line id="_x30_.1.14.1.38" fill="none" stroke="#FFFFFF" stroke-width="0.432" stroke-linecap="round" x1="283.617" y1="35.504" x2="283.617" y2="31.904"/>
				
					<line id="_x30_.1.14.1.39" fill="none" stroke="#FFFFFF" stroke-width="0.432" stroke-linecap="round" x1="283.617" y1="31.904" x2="285.415" y2="30.104"/>
				
					<line id="_x30_.1.14.1.40" fill="none" stroke="#FFFFFF" stroke-width="0.432" stroke-linecap="round" x1="283.617" y1="35.504" x2="281.818" y2="37.304"/>
				
					<line id="_x30_.1.14.1.41" fill="none" stroke="#FFFFFF" stroke-width="0.432" stroke-linecap="round" x1="281.818" y1="37.304" x2="278.215" y2="37.304"/>
				
					<line id="_x30_.1.14.1.42" fill="none" stroke="#FFFFFF" stroke-width="0.432" stroke-linecap="round" x1="278.215" y1="37.304" x2="276.415" y2="35.504"/>
				
					<line id="_x30_.1.14.1.43" fill="none" stroke="#FFFFFF" stroke-width="0.432" stroke-linecap="round" x1="276.415" y1="35.504" x2="276.415" y2="31.904"/>
				
					<line id="_x30_.1.14.1.44" fill="none" stroke="#FFFFFF" stroke-width="0.432" stroke-linecap="round" x1="276.415" y1="31.904" x2="278.215" y2="30.104"/>
				
					<line id="_x30_.1.14.1.45" fill="none" stroke="#FFFFFF" stroke-width="0.432" stroke-linecap="round" x1="278.215" y1="30.104" x2="281.818" y2="30.104"/>
				
					<line id="_x30_.1.14.1.46" fill="none" stroke="#FFFFFF" stroke-width="0.432" stroke-linecap="round" x1="281.818" y1="30.104" x2="283.617" y2="31.904"/>
				
					<line id="_x30_.1.14.1.47" fill="none" stroke="#FFFFFF" stroke-width="0.432" stroke-linecap="round" x1="290.818" y1="35.504" x2="290.818" y2="31.904"/>
				
					<line id="_x30_.1.14.1.48" fill="none" stroke="#FFFFFF" stroke-width="0.432" stroke-linecap="round" x1="289.017" y1="37.304" x2="290.818" y2="35.504"/>
				
					<line id="_x30_.1.14.1.49" fill="none" stroke="#FFFFFF" stroke-width="0.432" stroke-linecap="round" x1="290.818" y1="31.904" x2="289.017" y2="30.104"/>
				
					<line id="_x30_.1.14.1.50" fill="none" stroke="#FFFFFF" stroke-width="0.432" stroke-linecap="round" x1="285.415" y1="30.104" x2="289.017" y2="30.104"/>
				
					<line id="_x30_.1.14.1.51" fill="none" stroke="#FFFFFF" stroke-width="0.432" stroke-linecap="round" x1="238.617" y1="37.304" x2="235.017" y2="37.304"/>
				
					<line id="_x30_.1.14.1.52" fill="none" stroke="#FFFFFF" stroke-width="0.432" stroke-linecap="round" x1="235.017" y1="37.304" x2="233.215" y2="35.504"/>
				
					<line id="_x30_.1.14.1.53" fill="none" stroke="#FFFFFF" stroke-width="0.432" stroke-linecap="round" x1="233.215" y1="35.504" x2="233.215" y2="31.904"/>
				
					<line id="_x30_.1.14.1.54" fill="none" stroke="#FFFFFF" stroke-width="0.432" stroke-linecap="round" x1="233.215" y1="31.904" x2="235.017" y2="30.104"/>
				
					<line id="_x30_.1.14.1.55" fill="none" stroke="#FFFFFF" stroke-width="0.432" stroke-linecap="round" x1="238.617" y1="37.304" x2="240.415" y2="35.504"/>
				
					<line id="_x30_.1.14.1.56" fill="none" stroke="#FFFFFF" stroke-width="0.432" stroke-linecap="round" x1="240.415" y1="31.904" x2="238.617" y2="30.104"/>
				
					<line id="_x30_.1.14.1.57" fill="none" stroke="#FFFFFF" stroke-width="0.432" stroke-linecap="round" x1="235.017" y1="30.104" x2="238.617" y2="30.104"/>
			</g>
			<g>
				
					<line id="_x30_.1.20.1.1" fill="none" stroke="#FFFFFF" stroke-width="0.432" stroke-linecap="round" x1="227.816" y1="166.904" x2="231.415" y2="166.904"/>
				
					<line id="_x30_.1.20.1.2" fill="none" stroke="#FFFFFF" stroke-width="0.432" stroke-linecap="round" x1="231.415" y1="166.904" x2="233.215" y2="168.705"/>
				
					<line id="_x30_.1.20.1.3" fill="none" stroke="#FFFFFF" stroke-width="0.432" stroke-linecap="round" x1="233.215" y1="168.705" x2="233.215" y2="172.303"/>
				
					<line id="_x30_.1.20.1.4" fill="none" stroke="#FFFFFF" stroke-width="0.432" stroke-linecap="round" x1="233.215" y1="172.303" x2="231.415" y2="174.104"/>
				
					<line id="_x30_.1.20.1.5" fill="none" stroke="#FFFFFF" stroke-width="0.432" stroke-linecap="round" x1="218.816" y1="168.705" x2="220.617" y2="166.904"/>
				
					<line id="_x30_.1.20.1.6" fill="none" stroke="#FFFFFF" stroke-width="0.432" stroke-linecap="round" x1="220.617" y1="166.904" x2="224.215" y2="166.904"/>
				
					<line id="_x30_.1.20.1.7" fill="none" stroke="#FFFFFF" stroke-width="0.432" stroke-linecap="round" x1="224.215" y1="166.904" x2="226.017" y2="168.705"/>
				
					<line id="_x30_.1.20.1.8" fill="none" stroke="#FFFFFF" stroke-width="0.432" stroke-linecap="round" x1="226.017" y1="168.705" x2="226.017" y2="172.303"/>
				
					<line id="_x30_.1.20.1.9" fill="none" stroke="#FFFFFF" stroke-width="0.432" stroke-linecap="round" x1="226.017" y1="172.303" x2="224.215" y2="174.104"/>
				
					<line id="_x30_.1.20.1.10" fill="none" stroke="#FFFFFF" stroke-width="0.432" stroke-linecap="round" x1="224.215" y1="174.104" x2="220.617" y2="174.104"/>
				
					<line id="_x30_.1.20.1.11" fill="none" stroke="#FFFFFF" stroke-width="0.432" stroke-linecap="round" x1="220.617" y1="174.104" x2="218.816" y2="172.303"/>
				
					<line id="_x30_.1.20.1.12" fill="none" stroke="#FFFFFF" stroke-width="0.432" stroke-linecap="round" x1="227.816" y1="166.904" x2="226.017" y2="168.705"/>
				
					<line id="_x30_.1.20.1.13" fill="none" stroke="#FFFFFF" stroke-width="0.432" stroke-linecap="round" x1="226.017" y1="172.303" x2="227.816" y2="174.104"/>
				
					<line id="_x30_.1.20.1.14" fill="none" stroke="#FFFFFF" stroke-width="0.432" stroke-linecap="round" x1="231.415" y1="174.104" x2="227.816" y2="174.104"/>
				
					<line id="_x30_.1.20.1.15" fill="none" stroke="#FFFFFF" stroke-width="0.432" stroke-linecap="round" x1="206.215" y1="166.904" x2="209.816" y2="166.904"/>
				
					<line id="_x30_.1.20.1.16" fill="none" stroke="#FFFFFF" stroke-width="0.432" stroke-linecap="round" x1="209.816" y1="166.904" x2="211.617" y2="168.705"/>
				
					<line id="_x30_.1.20.1.17" fill="none" stroke="#FFFFFF" stroke-width="0.432" stroke-linecap="round" x1="211.617" y1="168.705" x2="211.617" y2="172.303"/>
				
					<line id="_x30_.1.20.1.18" fill="none" stroke="#FFFFFF" stroke-width="0.432" stroke-linecap="round" x1="211.617" y1="172.303" x2="209.816" y2="174.104"/>
				
					<line id="_x30_.1.20.1.19" fill="none" stroke="#FFFFFF" stroke-width="0.432" stroke-linecap="round" x1="211.617" y1="168.705" x2="213.415" y2="166.904"/>
				
					<line id="_x30_.1.20.1.20" fill="none" stroke="#FFFFFF" stroke-width="0.432" stroke-linecap="round" x1="213.415" y1="166.904" x2="217.017" y2="166.904"/>
				
					<line id="_x30_.1.20.1.21" fill="none" stroke="#FFFFFF" stroke-width="0.432" stroke-linecap="round" x1="217.017" y1="166.904" x2="218.816" y2="168.705"/>
				
					<line id="_x30_.1.20.1.22" fill="none" stroke="#FFFFFF" stroke-width="0.432" stroke-linecap="round" x1="218.816" y1="168.705" x2="218.816" y2="172.303"/>
				
					<line id="_x30_.1.20.1.23" fill="none" stroke="#FFFFFF" stroke-width="0.432" stroke-linecap="round" x1="218.816" y1="172.303" x2="217.017" y2="174.104"/>
				
					<line id="_x30_.1.20.1.24" fill="none" stroke="#FFFFFF" stroke-width="0.432" stroke-linecap="round" x1="217.017" y1="174.104" x2="213.415" y2="174.104"/>
				
					<line id="_x30_.1.20.1.25" fill="none" stroke="#FFFFFF" stroke-width="0.432" stroke-linecap="round" x1="213.415" y1="174.104" x2="211.617" y2="172.303"/>
				
					<line id="_x30_.1.20.1.26" fill="none" stroke="#FFFFFF" stroke-width="0.432" stroke-linecap="round" x1="197.215" y1="168.705" x2="199.017" y2="166.904"/>
				
					<line id="_x30_.1.20.1.27" fill="none" stroke="#FFFFFF" stroke-width="0.432" stroke-linecap="round" x1="199.017" y1="166.904" x2="202.615" y2="166.904"/>
				
					<line id="_x30_.1.20.1.28" fill="none" stroke="#FFFFFF" stroke-width="0.432" stroke-linecap="round" x1="202.615" y1="166.904" x2="204.415" y2="168.705"/>
				
					<line id="_x30_.1.20.1.29" fill="none" stroke="#FFFFFF" stroke-width="0.432" stroke-linecap="round" x1="204.415" y1="168.705" x2="204.415" y2="172.303"/>
				
					<line id="_x30_.1.20.1.30" fill="none" stroke="#FFFFFF" stroke-width="0.432" stroke-linecap="round" x1="204.415" y1="172.303" x2="202.615" y2="174.104"/>
				
					<line id="_x30_.1.20.1.31" fill="none" stroke="#FFFFFF" stroke-width="0.432" stroke-linecap="round" x1="202.615" y1="174.104" x2="199.017" y2="174.104"/>
				
					<line id="_x30_.1.20.1.32" fill="none" stroke="#FFFFFF" stroke-width="0.432" stroke-linecap="round" x1="199.017" y1="174.104" x2="197.215" y2="172.303"/>
				
					<line id="_x30_.1.20.1.33" fill="none" stroke="#FFFFFF" stroke-width="0.432" stroke-linecap="round" x1="206.215" y1="166.904" x2="204.415" y2="168.705"/>
				
					<line id="_x30_.1.20.1.34" fill="none" stroke="#FFFFFF" stroke-width="0.432" stroke-linecap="round" x1="204.415" y1="172.303" x2="206.215" y2="174.104"/>
				
					<line id="_x30_.1.20.1.35" fill="none" stroke="#FFFFFF" stroke-width="0.432" stroke-linecap="round" x1="209.816" y1="174.104" x2="206.215" y2="174.104"/>
				
					<line id="_x30_.1.20.1.36" fill="none" stroke="#FFFFFF" stroke-width="0.432" stroke-linecap="round" x1="184.615" y1="166.904" x2="188.215" y2="166.904"/>
				
					<line id="_x30_.1.20.1.37" fill="none" stroke="#FFFFFF" stroke-width="0.432" stroke-linecap="round" x1="188.215" y1="166.904" x2="190.017" y2="168.705"/>
				
					<line id="_x30_.1.20.1.38" fill="none" stroke="#FFFFFF" stroke-width="0.432" stroke-linecap="round" x1="190.017" y1="168.705" x2="190.017" y2="172.303"/>
				
					<line id="_x30_.1.20.1.39" fill="none" stroke="#FFFFFF" stroke-width="0.432" stroke-linecap="round" x1="190.017" y1="172.303" x2="188.215" y2="174.104"/>
				
					<line id="_x30_.1.20.1.40" fill="none" stroke="#FFFFFF" stroke-width="0.432" stroke-linecap="round" x1="190.017" y1="168.705" x2="191.816" y2="166.904"/>
				
					<line id="_x30_.1.20.1.41" fill="none" stroke="#FFFFFF" stroke-width="0.432" stroke-linecap="round" x1="191.816" y1="166.904" x2="195.415" y2="166.904"/>
				
					<line id="_x30_.1.20.1.42" fill="none" stroke="#FFFFFF" stroke-width="0.432" stroke-linecap="round" x1="195.415" y1="166.904" x2="197.215" y2="168.705"/>
				
					<line id="_x30_.1.20.1.43" fill="none" stroke="#FFFFFF" stroke-width="0.432" stroke-linecap="round" x1="197.215" y1="168.705" x2="197.215" y2="172.303"/>
				
					<line id="_x30_.1.20.1.44" fill="none" stroke="#FFFFFF" stroke-width="0.432" stroke-linecap="round" x1="197.215" y1="172.303" x2="195.415" y2="174.104"/>
				
					<line id="_x30_.1.20.1.45" fill="none" stroke="#FFFFFF" stroke-width="0.432" stroke-linecap="round" x1="195.415" y1="174.104" x2="191.816" y2="174.104"/>
				
					<line id="_x30_.1.20.1.46" fill="none" stroke="#FFFFFF" stroke-width="0.432" stroke-linecap="round" x1="191.816" y1="174.104" x2="190.017" y2="172.303"/>
				
					<line id="_x30_.1.20.1.47" fill="none" stroke="#FFFFFF" stroke-width="0.432" stroke-linecap="round" x1="182.816" y1="168.705" x2="182.816" y2="172.303"/>
				
					<line id="_x30_.1.20.1.48" fill="none" stroke="#FFFFFF" stroke-width="0.432" stroke-linecap="round" x1="184.615" y1="166.904" x2="182.816" y2="168.705"/>
				
					<line id="_x30_.1.20.1.49" fill="none" stroke="#FFFFFF" stroke-width="0.432" stroke-linecap="round" x1="182.816" y1="172.303" x2="184.615" y2="174.104"/>
				
					<line id="_x30_.1.20.1.50" fill="none" stroke="#FFFFFF" stroke-width="0.432" stroke-linecap="round" x1="188.215" y1="174.104" x2="184.615" y2="174.104"/>
				
					<line id="_x30_.1.20.1.51" fill="none" stroke="#FFFFFF" stroke-width="0.432" stroke-linecap="round" x1="235.017" y1="166.904" x2="238.617" y2="166.904"/>
				
					<line id="_x30_.1.20.1.52" fill="none" stroke="#FFFFFF" stroke-width="0.432" stroke-linecap="round" x1="238.617" y1="166.904" x2="240.415" y2="168.705"/>
				
					<line id="_x30_.1.20.1.53" fill="none" stroke="#FFFFFF" stroke-width="0.432" stroke-linecap="round" x1="240.415" y1="168.705" x2="240.415" y2="172.303"/>
				
					<line id="_x30_.1.20.1.54" fill="none" stroke="#FFFFFF" stroke-width="0.432" stroke-linecap="round" x1="240.415" y1="172.303" x2="238.617" y2="174.104"/>
				
					<line id="_x30_.1.20.1.55" fill="none" stroke="#FFFFFF" stroke-width="0.432" stroke-linecap="round" x1="235.017" y1="166.904" x2="233.215" y2="168.705"/>
				
					<line id="_x30_.1.20.1.56" fill="none" stroke="#FFFFFF" stroke-width="0.432" stroke-linecap="round" x1="233.215" y1="172.303" x2="235.017" y2="174.104"/>
				
					<line id="_x30_.1.20.1.57" fill="none" stroke="#FFFFFF" stroke-width="0.432" stroke-linecap="round" x1="238.617" y1="174.104" x2="235.017" y2="174.104"/>
			</g>
		</g>
		<polygon fill="none" stroke="#FFFFFF" stroke-width="0.576" points="296.27,65.36 296.27,0.275 0.294,0.275 0.294,201.875 
			296.27,201.875 296.27,171.555 302.695,165.132 302.695,165.132 302.695,71.782 		"/>
		<circle fill="none" stroke="#FFFFFF" stroke-width="0.576" cx="11.248" cy="190.292" r="6.666"/>
		<circle fill="none" stroke="#FFFFFF" stroke-width="0.576" cx="11.248" cy="12.628" r="6.667"/>
		<circle fill="none" stroke="#FFFFFF" stroke-width="0.576" cx="282.547" cy="190.292" r="6.666"/>
		<circle fill="none" stroke="#FFFFFF" stroke-width="0.576" cx="282.547" cy="12.628" r="6.667"/>
	</g>
	<g id="copper1">
		<g id="copper0">
			<circle id="connector91pin" fill="none" stroke="#F7BD13" stroke-width="0.811" cx="186.534" cy="170.476" r="1.701"/>
			<circle id="connector0pin" fill="none" stroke="#F7BD13" stroke-width="0.811" cx="251.334" cy="170.476" r="1.701"/>
			<circle id="connector1pin" fill="none" stroke="#F7BD13" stroke-width="0.811" cx="258.534" cy="170.476" r="1.701"/>
			<circle id="connector2pin" fill="none" stroke="#F7BD13" stroke-width="0.811" cx="265.733" cy="170.476" r="1.701"/>
			<circle id="connector3pin" fill="none" stroke="#F7BD13" stroke-width="0.811" cx="272.933" cy="170.476" r="1.701"/>
			<circle id="connector4pin" fill="none" stroke="#F7BD13" stroke-width="0.811" cx="280.132" cy="170.476" r="1.701"/>
			<circle id="connector5pin" fill="none" stroke="#F7BD13" stroke-width="0.811" cx="287.334" cy="170.476" r="1.701"/>
			<circle id="connector51pin" fill="none" stroke="#F7BD13" stroke-width="0.811" cx="225.413" cy="33.677" r="1.701"/>
			<circle id="connector52pin" fill="none" stroke="#F7BD13" stroke-width="0.811" cx="218.213" cy="33.677" r="1.701"/>
			<circle id="connector53pin" fill="none" stroke="#F7BD13" stroke-width="0.811" cx="211.011" cy="33.677" r="1.7"/>
			<circle id="connector54pin" fill="none" stroke="#F7BD13" stroke-width="0.811" cx="203.813" cy="33.677" r="1.701"/>
			<circle id="connector55pin" fill="none" stroke="#F7BD13" stroke-width="0.811" cx="196.614" cy="33.677" r="1.701"/>
			<circle id="connector56pin" fill="none" stroke="#F7BD13" stroke-width="0.811" cx="189.413" cy="33.677" r="1.701"/>
			<circle id="connector57pin" fill="none" stroke="#F7BD13" stroke-width="0.811" cx="182.213" cy="33.677" r="1.701"/>
			<circle id="connector58pin" fill="none" stroke="#F7BD13" stroke-width="0.811" cx="175.011" cy="33.677" r="1.7"/>
			<circle id="connector59pin" fill="none" stroke="#F7BD13" stroke-width="0.811" cx="167.813" cy="33.677" r="1.701"/>
			<circle id="connector60pin" fill="none" stroke="#F7BD13" stroke-width="0.811" cx="160.614" cy="33.677" r="1.701"/>
			<circle id="connector61pin" fill="none" stroke="#F7BD13" stroke-width="0.811" cx="287.334" cy="33.677" r="1.701"/>
			<circle id="connector62pin" fill="none" stroke="#F7BD13" stroke-width="0.811" cx="280.132" cy="33.677" r="1.7"/>
			<circle id="connector63pin" fill="none" stroke="#F7BD13" stroke-width="0.811" cx="272.933" cy="33.677" r="1.7"/>
			<circle id="connector64pin" fill="none" stroke="#F7BD13" stroke-width="0.811" cx="265.733" cy="33.677" r="1.701"/>
			<circle id="connector65pin" fill="none" stroke="#F7BD13" stroke-width="0.811" cx="258.534" cy="33.677" r="1.701"/>
			<circle id="connector66pin" fill="none" stroke="#F7BD13" stroke-width="0.811" cx="251.334" cy="33.677" r="1.701"/>
			<circle id="connector67pin" fill="none" stroke="#F7BD13" stroke-width="0.811" cx="244.132" cy="33.677" r="1.7"/>
			<circle id="connector68pin" fill="none" stroke="#F7BD13" stroke-width="0.811" cx="236.933" cy="33.677" r="1.7"/>
			<circle id="connector84pin" fill="none" stroke="#F7BD13" stroke-width="0.811" cx="193.733" cy="170.476" r="1.701"/>
			<circle id="connector85pin" fill="none" stroke="#F7BD13" stroke-width="0.811" cx="200.933" cy="170.476" r="1.701"/>
			<circle id="connector86pin" fill="none" stroke="#F7BD13" stroke-width="0.811" cx="208.132" cy="170.476" r="1.701"/>
			<circle id="connector87pin" fill="none" stroke="#F7BD13" stroke-width="0.811" cx="215.334" cy="170.476" r="1.701"/>
			<circle id="connector88pin" fill="none" stroke="#F7BD13" stroke-width="0.811" cx="222.534" cy="170.476" r="1.701"/>
			<circle id="connector89pin" fill="none" stroke="#F7BD13" stroke-width="0.811" cx="229.733" cy="170.476" r="1.701"/>
			<circle id="connector90pin" fill="none" stroke="#F7BD13" stroke-width="0.811" cx="236.933" cy="170.476" r="1.701"/>
		</g>
	</g>
</g>
</svg>
